  1 Current: Korean Coffee Shop (old)  (visited 2 times)
    Next 100.00% ( 1)  ท๊อป ฮิต ปี 90

  2 Current: สถานีคาราบาว  (visited 2 times)
      เมดอินไทยแลนด์ 
      รักเป็นเช่นใด 
      18 ฝน เสือ ธนพล Cover Tuwleklek
      คิดถึง
      ตังเก
      หัวใจมักง่าย
      คนจนผู้ยิ่งใหญ่ คาราบาว
      นางงามตู้กระจก คาราบาว
      ไถ่เธอคืนมา - พงษ์สิทธิ์ คำภีร์
      สัญญาเมื่อสายัณห์：ไท ธนาวุฒิ
      ผีโรงเย็น -  พงษ์สิทธิ์ คำภีร์
      ปักษ์ใต้บ้านเรา (แฮมเมอร์)
      สุดใจ - พงษ์สิทธิ์ คำภีร์
      หนุ่มเทคนิค-สาวเทคนิค (ฌามา)
      ตลอดเวลา - พงษ์สิทธิ์ คำภีร์
      มาตามสัญญา -  พงษ์สิทธิ์ คำภีร์
      อยู่คนเดียว ปู พงสิทธิ์ คำภีร์
      รักทรหด คาราบาว
      เดือนเพ็ญ คาราบาว
      ทะเลใจ
      บินหลา - แฮมเมอร์
      มหาลัย คาราบาว
      ราชาเงินผ่อน คาราบาว
      ยายสำอาง คาราบาว
      คนล่าฝัน คาราบาว
      แม่สาย คาราบาว
      คนเก็บฟืน คาราบาว
      บาปบริสุทธิ์ คาราบาว
      กระถางดอกไม้ให้คุณ คาราบาว
    Next 100.00% ( 1)  กระตุกหนังตา

  3 Current: ลูกทุ่ง ท็อปฮิต  (visited 2 times)
      ขอใจเธอแลกเบอร์โทร
      ตื๊ด
      จุงเบย จุงเบย
      เช็ดแล้วทิ้ง (รกอก)
      รักได้ครั้งละคน เชื่อใจได้คนละครั้ง
      ฉันกำลังเป็นตัวแทนของใครหรือเปล่า
      อยากตบ(รางวัล) คนหลายใจ
      โกรธไหลย้อน
      อ๊อดแอด
      รักนะ ฉึก ฉึก
      รักแท้ในคืนหลอกลวง
      ฝากแฟนผมด้วย
      กรุณาฟังให้จบ
      ขอโทษที่ลืมบ่ได้
      ไม่มีอะไรจะคุยกับเธอ
      ฝาก
      ใจออกอาการ
      คนหมดใจ รั้งให้ตายก็ไปอยู่ดี
      จีบได้แฟนตายแล้ว
      คิวต่อไป
      แหลงพ่อขุน
      กลับมาทำไม
      มันต้องถอน 
      อย่าขอหมอลำ
      ทำบุญร่วมชาติ 
      โรงแรมใจ
      อยากเจอคนจริงใจ
      ปูนาขาเก
      หมากัด
      ผัวข้อยเป็นเมียเขา
      ผัวข้อยเป็นเมียเขา
      เลิฟก็ได้..ไลค์ก็ดี
      โดนของ
      เด็กพี่มีชู้
      เต็มเหนี่ยว
      ฮัลโหลเฮีย
      ทุ่งลุยลาย
    Next 50.00% ( 1)  เปิดซิงเพลงใหม่
    Next 50.00% ( 1)  อินดี้ FAT ยุคบุกเบิก

  4 Current: ปาร์ตี้รียูเนียน  (visited 2 times)
      [Audio 02] ไม่เท่าไหร่ - T-Skirt (ที-สเกิร์ต)
      PLIK LOK.wmv
      UFO : Raffy & Nancy [Official MV]
      [MV]เหลวไหล-มอส
      อ้อม สุนิสา - ถอยดีกว่า
      รมณ์บ่จอย
      uht - นี่แหละเพื่อน
      หัวไม่เหน่ง
      ข้าวมันไก่ : James เรืองศักดิ์ [Official MV]
      andrea - บ้านเธอซิ
      กระดุ้กกระดิ๊ก
      ซูเปอร์ฮีโร่
      ลื่น - ทัช ณ ตะกั่วทุ่ง
      รสปูอัด : Giant [Official MV]
      HUNZ^^ทริปกระบี่ ไปด้วยคน
      ซักกะนิด
      โอ๊ะ โอ๊ย
      รบกวนมารักกัน
      แมลง
      ฝากเลี้ยง
      เกรงใจ
      เจ็บซะไม่มี
      ต้องยกให้
      ช่วยด้วย
      ไม่แคร์ 
      ใช่เลย (Oh Yes!)
      อย่างนี้น่ะใช่
      ลื่นมากเชื่อยาก
      Go Go Go
      มากคนมากความ
      ก็ใครมันจะไปรู้ล่ะ
      รีบรีบ ง่วงง่วง
      ประมาณนี้รึเปล่า
      ดูมั้ย
      เป็นอย่างนี้อีกนานไหม
      สวัสดีคุณครู
      เดอ แต่ ทู
    Next 50.00% ( 1)  K Indie อินดี้เกาหลี
    Next 50.00% ( 1)  คลื่นโมเดิร์นด็อก

  5 Current: ปาร์ตี้เคาะขวด   (visited 2 times)
      รักทรหด คาราบาว
      ขอใจเธอแลกเบอร์โทร
      อ๊อดแอด
      กลับมาทำไม
      ความลับในใจ - Hugo
      แก้วตาขาร็อค - ป้าง นครินทร์
      มันต้องถอน 
      กรุณาฟังให้จบ
      ชีวิตหนี้
      ซมซาน
      ยาม
      สัญญาเมื่อสายัณฑ์
      อ๊อด อ๊อด
      18 ฝน
      ใจนักเลง
      ราชันย์ฝันสลาย
      เกาะสมุย
      ดูเธอทำ
      เสียดายของ
      ตกลงเราเป็นอะไรกัน
      เธอเป็นแฟนฉันแล้ว
      รักคนมีเจ้าของ
      พี่ปีสองรักน้องปีหนึ่ง
      ทำบุญร่วมชาติ
      ดาวมหาลัย
      เหล้าจ๋า
      คุณเธอ
      เมียพี่มีชู้
      หมากัด
      รักจริงให้ติงนัง
    Next 50.00% ( 1)  ชิล ๆ ยามเช้า
    Next 50.00% ( 1)  Ghibli Time

  6 Current: เพลงคลาสิก หลับสบาย  (visited 2 times)
      Pange Lingua Gloriosi - Catholic Hymns, Gregorian Chant
      Josquin - Ave Maria...Virgo Serena
      Annibale Padovano: Missa a 24, Version II - Agnus Dei - Dona nobis pacem
      Palestrina : Agnus Dei
      Stabat Mater (Pergolesi) - Emma Kirkby
      English Renaissance song 1
      Italian Renaissance song 1
      Mille regrets-Josquin Memling
      Gothic chant - Kyrie
      Chant of the Templars - Salve Regina FULL 14:35 MIN
      Miserere mei Deus
      The Angelus
    Next 100.00% ( 2)  เดอะวอยซ์รวมฮิต

  7 Current: Warm Up Party  (visited 2 times)
      3.2.1 - มีอีกไหม (Want More Shawty) [Official MV]
      แฟนไม่มีซะที - BANKK CASH feat. WAY THAITANIUM [Official MV]
      Sorry - Southside feat. ชิน ชินวุฒ
      Dancing 
      We Can't Stop - Miley Cyrus lyrics
    Next 50.00% ( 1)  เบสกรึ่ม ๆ
    Next 50.00% ( 1)  ขนมชั้นใบเตย

  8 Current: ด้วยความคิดถึง  (visited 2 times)
      กันและกัน
      รักแรกพบ 
      เติมเต็ม
      ไกล
      คนที่คิดถึง
      คิดถึง - Silly Fools
      คิดถึงเธอทุกทีที่อยู่คนเดียว
      ความทรงจำสีจาง
      ฉันจะกอด (Hug) - Lula (ลุลา) [Official Audio]
      อยากให้รู้คิดถึงเธอขนาดไหน
      คิดถึงนะ Lazy Sunday2 feat.แพรว คณิตกุล [Official MV]
      ดึกแล้ว -  ป้าง นครินทร์  กิ่งศักดิ์
      โอ๊ย โอ๊ย - เบน ชลาทิศ
      สายลม เจนนิเฟอร์ คิ้ม
      คิดถึง
      คิดถึง
      พูดลอยลอย 
      ไม่รักแต่คิดถึง
      คลั่ง
      ทุ้มอยู่ในใจ (Acoustic)
    Next 50.00% ( 1)  City night
    Next 50.00% ( 1)  คลื่นโมเดิร์นด็อก

  9 Current: untitled  (visited 2 times)
      UNTITLED 001
      clear
      ลาฝัน
      Our
      เสียดาย
      ภาพจำ
      Heroes
      เสมอ
      เก็บผ้า
      ดีแล้ว
      แค่เธออยู่ตรงนี้
      ความรัก, ตู้ปลา กับสุราหนึ่งป้าน
      สุญญากาศ
      ก่อนหน้านี้ไม่นาน
      สำคัญ
      ลอย
      พักก่อน
      ภวังค์
      หายใจ
      ปล่อยให้ตัวฉันไป
      ฝนตกขึ้นฟ้า
      ช่อมะกอก
      The Haunted House
      ส่วนที่หายไป 
      เสาไฟฟ้า
      ปล่อย 
      ฉันพอเข้าใจ
    Next 100.00% ( 1)  บอสซา ฟินนน

 10 Current: JAZZ HIP-HOP  (visited 2 times)
      New Love Park (Remix)
      Let The Story Tell
      Luv Letter
      sanctury
      Flower Dance 花のダンス
    Next 50.00% ( 1)  เดินไปฟังไป
    Next 50.00% ( 1)  City night

 11 Current: Sweet Valentine's Day with K-POP  (visited 2 times)
      잔소리 (Nagging)
      Oh
      낙원 (Paradise)
      I'm in Love
      Honey
      좋은 사람 (A good person)
      다행이다 (It's ok)
      기다리다 (Waiting)
      Romeo N Juliet
      하와이안 커플 (Hawaiian Couple)
    Next 50.00% ( 1)  ชิล ๆ ในคาเฟ่
    Next 50.00% ( 1)  Korean rap songs 

 12 Current: ราชดำเนิน  (visited 2 times)
      มนุษย์ดาวอังคาร
      กุ้งกุลาร้องไห้
      ขนม
      มนต์การเมือง
      หวัง
    Next 50.00% ( 1)  คลื่นแสตมป์
    Next 50.00% ( 1)  "Hedwig" Soundtrack

 13 Current: Cool Japanese Music Videos  (visited 2 times)
      RELAXIN'
      ワンダフル (Wonderful)
      はじめよう (Hajimeyou)
      地下鉄の動態 (Chikatestu no doutai)
      アルクアラウンド (Walk Around)
      World Order
      Katachi
      Life is Music
      Music
      ただのともだち
      Moving
      1mm
      ねぇ (Ne)
      spending all my time
      Spring of Life
    Next 100.00% ( 2)  Korean rap songs 

 14 Current: More Japanese songs.. (Kind of classic lol)  (visited 2 times)
      赤い糸 (Akai Ito)
      Best Friend
      世界の一つだけの花 (Sekai ni hitotsu dake no hana)
      Best Friend (Live)
      プラネタリウム (Planetarium)
      PONPONPON
    Next 50.00% ( 1)  K ballad เพลงรักเกาหลี
    Next 50.00% ( 1)  ฟังกับเธอ

 15 Current: แฟนเก่า  (visited 2 times)
      คิดถึงเธอทุกทีที่อยู่คนเดียว
      ขอบใจจริงจริง
      เสียดาย
      เกือบ
      ช่วงที่ดีที่สุด
      คุกเข่า
      รักคงยังไม่พอ
      Beautiful
      ฉันขอโทษ
      if ถ้าหาก
      พูดตรงๆ
      ความคิด
      จำเธอขึ้นใจ 
      ลึกสุดใจ
      ความทรงจำสีจาง
      เข้ากันไม่ได้
      เต็มใจให้
      แค่คิดถึงเธอ
      ฝากที
      ความทรงจำ
      ร้องไห้ง่ายๆกับเรื่องเดิม
      ที่แห่งนี้
      นาฬิกาตาย
      ดอกไม้ยังงดงาม
      เธอยัง
      คนไม่มีวาสนา
      ทิ้งรักลงแม่น้ำ
      แช่ง
      รักเก่าๆ
      เธอคือความฝัน
      เล่าสู่กันฟัง
    Next 50.00% ( 1)  โด๋ว มรกต โกมลบุตร
    Next 50.00% ( 1)  หลับตาเถิดนะ

 16 Current: Anime 90's  (visited 2 times)
      ははうえさま
      じゃじゃ馬にさせないで
      ペガサス幻想
      ゆずれない願い
      光と影を抱きしめたまま
      とんちんかんちん一休さん
      CHA-LA HEAD-CHA-LA
      微笑みの爆弾
      デイドリーム・ジェネレーション
      ドラえもんのうた
      SEVENTH MOON
      MY SOUL FOR YOU
      REMEMBER 16
      MY FRIENDS
      SWEET FANTASY
      突撃ラブハート
    Next 50.00% ( 1)  ชิล ๆ ยามเช้า
    Next 50.00% ( 1)  อินดี้ โยกคล่อง ร้องได้

 17 Current: Mixtape Monday  (visited 2 times)
      On the line
      Morning eleven
      Tell me in the morning
      Send me down
      Don't stop (color on the walls)
      Junk of the heart (happy)
      Coming around
      I'd rather dance with you
      Rehab
      Long Legs
      Brand new start
      The curse of being in love
      Reckless Serenade
      Bumper
      A promise
      Yellow Butterfly
      Unbelievers
      The blues are still blue
      when we were young
    Next 100.00% ( 1)  LIVE VIBE

 18 Current: อินดี้ อันยอง   (visited 4 times)
      -deleted- Paper Mache
      내겐 그대만 있으면 돼요 (Original Song. Herz Analog) (I only need you)
    Next 50.00% ( 2)  เบสกรึ่ม ๆ
    Next 25.00% ( 1)  Jack Johnson Station
    Next 25.00% ( 1)  Korean cute indy

 19 Current: ความห่างไกล  (visited 4 times)
      รอพี่ก่อน
      ไม่เคยจะห่างกัน (เนื้อร้อง)
      เหตุเกิดจากความเหงา - Emotion Town
      อดทนกับความเหงา - KLEAR [Official MV]
      ส่งเพลงนี้คืนมาให้ฉันที
      กลัวความห่างไกล
      MV มองได้แต่อย่าชอบ (Official mv OST. ATM)
      ETC.- ฝาก [official audio]
      ด้วยความคิดถึง - Drama stream
      ความทรงจำสีจาง
      [Audio] Klear - อดทนกับความเหงา
      Better Weather - อากาศเปลี่ยนแปลงบ่อย [Audio]
      คนที่คิดถึง
      เพลง ความคิด - แสตมป์
      รอ - Slot Machine
      Hydra - ไกลเท่าเดิม
      ไกล - Musketeers
      ไกลแค่ไหน คือ ใกล้ - getsunova (Special Version)
      ห่างไกลกันเหลือเกิน
    Next 50.00% ( 2)  K ballad เพลงรักเกาหลี
    Next 25.00% ( 1)  รวมเพลงจากญี่ปุ่น
    Next 25.00% ( 1)  เหยียบมิดไมล์

 20 Current: Top International Indie   (visited 4 times)
      I Belong In Your Arms
      I Got 
      Houdini
      The Cave
      White Sky
      The Best Thing
      The High Road
      All of Me
      In The Sun
      Bruises
      Go Outside
      Devendra Banhart - Baby (Video)
      Major
      1234
      I Feel It All
      The Underdog
      Settle Down
      You, Me and the Bourgeoisie
      Anything Could Happen
      Bourgeois Shangri-La
      Another Day
      Tongue Tied
      Plage
      Smile
      One
      Release me
      French Navy
      Up Up Up
      Nighttiming
      I Look To You
      The Look
      Heartbreaker
      Pumped up Kicks
      Golden Cage
      Sidewalk Safari
      Cousins
      Diane Young
    Next 25.00% ( 1)  Jack Johnson Station
    Next 25.00% ( 1)  Korean rap songs 
    Next 25.00% ( 1)  K Indie อินดี้เกาหลี
    Next 25.00% ( 1)  บอสซา ฟินนน

 21 Current: ท๊อป ฮิต ปี 90  (visited 4 times)
      โง่งมงาย
      ลืมไปไม่รักกัน
      ยิ่งใกล้ยิ่งเจ็บ
      รอยร้าว
      หมากเกมนี้
      หมดคำถาม
      ลึกสุดใจ
      ปล่อยไปตามลมเลย 
      หลอกกันเล่นเลย
    Next 25.00% ( 1)  Korean rap songs 
    Next 25.00% ( 1)  เหยียบมิดไมล์
    Next 25.00% ( 1)  บอสซา ฟินนน
    Next 25.00% ( 1)  Korean Coffee Shop (old)

 22 Current: ฟังกับเธอ  (visited 4 times)
      ดาหลา
      Inchan Tree
      อบเชย
      Honeymoon
      ไอรดา
      อาจเพราะเธอ
      อยู่ที่เธอทุกอย่าง
      รอยยิ้ม
      ชอบตอนนี้
      เขิน
      Want To Know (ยังอยากรู้)
      ลมหายใจ
      รักคุณเข้าอีกแล้ว
      รักคุณเข้าแล้ว
      เจ้าหญิง
      ดอกไม้ feat. นภ พรชำนิ
      จะเก็บเธออยู่ในใจเสมอ   
      อยากจะขอ
      รักที่มากกว่า
      เมื่อมีเธอ (with you)
      พักสักวัน 
      ดีอย่างไร 
      ขอเมารักให้หัวปักหัวปำ 
    Next 25.00% ( 1)  City night
    Next 25.00% ( 1)  รวมเพลงจากญี่ปุ่น
    Next 25.00% ( 1)  รักหวาน ๆ
    Next 25.00% ( 1)  More Japanese songs.. (Kind of classic lol)

 23 Current: อินดี้ โยกคล่อง ร้องได้  (visited 4 times)
      โทรจิต
      พลั้ง
      สะกดใจ (Geyster Remix)
      I don't know
      จะเอาอะไร
    Next 25.00% ( 1)  โด๋ว มรกต โกมลบุตร
    Next 25.00% ( 1)  เดินไปฟังไป
    Next 25.00% ( 1)  อินดี้ FAT ยุคบุกเบิก
    Next 25.00% ( 1)  Anime 90's

 24 Current: หนังจบ...เพลงไม่จบ  (visited 6 times)
      มันคงเป็นความรัก 
      แก่นรัก
      สยามรำลึก
      เธอ Get ก็ Ok 
      กันและกัน
      ทุ้มอยู่ในใจ
      ศัตรูที่รัก 
      กินตับ
      ความคิด
      เรารักกัน
      ไม่อยากเป็นพระ
      สิ่งที่ฉันเป็น
      สภาวะทิ้งตัว
      ดวงใจยังมีรัก
      กลับมาทำไม
      ฉันอยู่ตรงนี่ข้าง ๆ เธอ
      สายเกินไป
      อันดากับฟ้าใส
      แฟนฉัน
      คนของเธอ
      ช่างไม่รู้เลย
      ฤดูรัก
      เพียงเธอ
      วัน เดือน ปี
      คิดถึงเธอทุกที (ที่อยู่คนเดียว)
      ขอมือเธอหน่อย
      อยากหยุดเวลา
      เราสองสามคน
      สิ่งเล็ก ๆ ที่เรียกว่ารัก
      โปรดส่งใครมารักฉันที
      รอเธอหันมา
      แสงสุดท้าย
      มองได้แต่อย่าชอบ
      รักไม่ต้องการเวลา
      เพลงที่ฉันไม่ได้แต่ง 
      อยากรักต้องไม่กลัวคำว่าเสียใจ
      ทุ้มอยู่ในใจ (Acoustic)
      อย่างน้อย
      ยินดีที่ไม่รู้จัก
      10-9-8-7-6-5-4-3-2-1
      เติมใจให้กัน
      วัดใจ
    Next 16.67% ( 1)  Easy Listening
    Next 16.67% ( 1)  เบสกรึ่ม ๆ
    Next 16.67% ( 1)  อินดี้ ณ ปัจจุบันขณะ
    Next 16.67% ( 1)  อินดี้ ตัวพ่อ
    Next 16.67% ( 1)  "Get lucky" Cover
    Next 16.67% ( 1)  กล่อม

 25 Current: Jazzy Night Shibuya-kei  (visited 6 times)
      Luv (Sic) Part 3" (featuring Shing02)
      ButterflyKiss
      Luv (Sic.) Part 2
      With Rainy Eyes
      Luv (Sic.) Part 4
      Now I Know (ft. Pismo)
      Beautiful Things Remix (ft. Amanda Diva)
      Prelude
      Miss You
      Let Go
      The Dawn (Feat. Ryan Shaw)
      Sentimental Scene
      Luv Letter
      Flower Dance 花のダンス
      Temperature of Tears
      Four Leaved Clover (feat. Junko Wada)
      1974 Way Home 
      Moonchild
      Flowers
    Next 20.00% ( 1)  โด๋ว มรกต โกมลบุตร
    Next 20.00% ( 1)  City night
    Next 20.00% ( 1)  รวมเพลงจากญี่ปุ่น
    Next 20.00% ( 1)  Korean coffee shop
    Next 20.00% ( 1)  엄마

 26 Current: Ghibli Time  (visited 8 times)
      Howl's Moving Castle
      Summer
      The Name of Life
      Become the wind
      Merry Go Round Life
      from Valley of the Wind
      Always With Me
      Ashitaka and San
      Summer of Goodbye
      Nausicaa Requiem
      Carrying you
    Next 37.50% ( 3)  Korean rap songs 
    Next 25.00% ( 2)  รวมเพลงจากญี่ปุ่น
    Next 12.50% ( 1)  เดอะวอยซ์รวมฮิต
    Next 12.50% ( 1)  เพลงข้างสนาม
    Next 12.50% ( 1)  ปาร์ตี้เคาะขวด 

 27 Current: อยู่อย่างเหงา ๆ  (visited 10 times)
      ปลายทาง
      ร้องไห้ง่ายง่ายกับเรื่องเดิมเดิม
      เวลา
      อยากให้รู้คิดถึงเธอขนาดไหน
      เธอยัง
      ดินแดนแห่งความรัก
      สาป 
      มากไปหรือเปล่า
      อยู่อย่างเหงา ๆ
      อยู่อย่างเหงา ๆ
      ฝนในใจ
    Next 10.00% ( 1)  เบเกอรี่ เลิฟอิส ฮิต
    Next 10.00% ( 1)  เบสกรึ่ม ๆ
    Next 10.00% ( 1)  คลื่นแสตมป์
    Next 10.00% ( 1)  ขับรถเพลิน ๆ
    Next 10.00% ( 1)  อินดี้ ตัวพ่อ
    Next 10.00% ( 1)  คลื่นโมเดิร์นด็อก
    Next 10.00% ( 1)  แข็งแกร่งที่สุดในปฐพี

 28 Current: 엄마  (visited 10 times)
      아침이슬
      달무리
      창밖의 여자
      거짓말이야
      들길 따라서
      엄마엄마
      사랑 그 쓸쓸함에 대하여
      한계령
      시를 위한 詩
      행진
      아침 이슬
      아름다운 사람
      초생달
      아마 늦은 여름이었을꺼야
      아니 벌써
      하늘
      행복의 나라
      담다디
      한동안 뜸했었지
      봄 여름 가을 겨울
       춘천가는 기차
      나항상 그대를
      모두다 사랑하리
      어쩌다 마주친 그대
      파초
      새벽아침
      가로수 그늘아래 서면
      나는 행복한 사람
      행복을 주는 사람
      점이
      제비
      옛 생각
      지금
      낙엽은 지는데
      고향의 푸른잔디
      화개장터
    Next 37.50% ( 3)  รวมเพลงจากญี่ปุ่น
    Next 25.00% ( 2)  Korean coffee shop
    Next 25.00% ( 2)  John Legend Station
    Next 12.50% ( 1)  Jazzy Night Shibuya-kei

 29 Current: บอสซา ฟินนน  (visited 12 times)
      Can't Help Falling In Love
      It Ain't Over Till Is Over (Bossanova version)
      Just Can't Get Enough (Bossa Version) - Priscilla, Rodrigo *Relaxing Bossa Lounge, Vol. 10*
      I say a little prayer for you - Taryn Szpilman
      Chill 'n Jazz - True
      I Didn't Know I Was Looking For Love - Sitti
      Stevie Wonder -  You Are The Sunshine Of My Life.wmv
      YOU ARE THE SUNSHINE OF MY LIFE "BOSSA NOVA STEVIE WONDER" {Classic Love Songs}
      Do You Know? (the Ping Pong Song) - Billynho Blanco *Relaxing Bossa Lounge, Vol. 3*
      2 Become One - Sitti
      Your Song (Bossa Version) - Marcelo Rezende *Relaxing Bossa Lounge, Vol. 10*
      Relaxing Bossa ❤ Stand By Me ♫ BOSSA NOVA COVER ♫
      You Give Me Something - Marcela Mangabeira *Relaxing Bossa Lounge, Vol. 3*
      Unchained Melody (Bossa Version) - Paulinho Loureiro *Relaxing Bossa Lounge, Vol. 10*
      I'll Never Fall in Love Again - Sitti
      L-O-V-E
    Next 16.67% ( 2)  เดินไปฟังไป
    Next  8.33% ( 1)  เปิดซิงเพลงใหม่
    Next  8.33% ( 1)  Korean cute indy
    Next  8.33% ( 1)  K ballad เพลงรักเกาหลี
    Next  8.33% ( 1)  รวมมิตรโอตาคุ
    Next  8.33% ( 1)  เช้าวันหยุด Big Cleaning Day
    Next  8.33% ( 1)  ช่องเก้าการ์ตูน

 30 Current: ฮิพ ฮิพ ปาร์ตี้เร้กเก้สการิมหาด  (visited 16 times)
      ผมรักเมืองไทย (I love you Thailand)
      เกาะสมุย
      สารเคมี
      Pride Of Lions
      ใจเย็น
      ปริมาณสุทธิ
      ส้ม อมรา - Play Girl (feat. Joey Boy)
      เจ้าพระยา (ChaoPraYa Lovers)
      กลิ่น
      กอด
      ดาวตก
      รอ
      ยิ่งอ้วนยิ่งชอบ
      จั๊กกิ้มกับต๊กโต
      Eyes Flyer
      ฉลามหลงโลมาบาดเจ็บ
      ภาษา
      พูดอีกที
      น้ำแข็งไส
    Next 14.29% ( 2)  กระตุกหนังตา
    Next 14.29% ( 2)  ล่องลอยไปในนิยาย
    Next 14.29% ( 2)  เพลงข้างสนาม
    Next  7.14% ( 1)  เปิดซิงเพลงใหม่
    Next  7.14% ( 1)  เดินไปฟังไป
    Next  7.14% ( 1)  "Her" Soundtrack
    Next  7.14% ( 1)  City night

 31 Current: เลิกเหอะ  (visited 18 times)
      ผิดสัญญา
      คนที่ยังไม่พร้อม
      ไม่รัก...ไม่ต้อง
      เจ้าชายกับเจ้าหญิง
      เกิดมาแค่รักกัน
      อยากจะรักแค่ไหน
      อยู่อย่างเหงา ๆ
      ก่อนที่มันจะสาย
      ทิ้ง
      หากฉันตาย
      โกหก
      เข้ากันไม่ได้
      รู้
      ขอบใจนะ
      ต่างคนต่างเหนื่อย
      เหนื่อย
      รักเก่าๆ
      ลืมไปหรือเปล่า
      ห่างกันสักพัก
      ถึงเวลาฟัง
      ความเฉยชาคือการบอกลาโดยไม่ต้องออกเสียง
      อธิบาย
      เหนื่อยเกินไปรึเปล่า (Love or Beloved)
      เกือบ
    Next 11.76% ( 2)  Jack Johnson Station
    Next 11.76% ( 2)  ร็อค ท็อปฮิต
    Next  5.88% ( 1)  เปิดซิงเพลงใหม่
    Next  5.88% ( 1)  ชิล ๆ ในคาเฟ่
    Next  5.88% ( 1)  Korean coffee shop
    Next  5.88% ( 1)  กระตุกหนังตา
    Next  5.88% ( 1)  John Legend Station

 32 Current: ผู้หญิงอินเลิฟ  (visited 20 times)
      ความลับ
      ผ้าเช็ดหน้า
      ดาว
      ไม่รู้
      สักวันหนึ่ง
      รักหรือเปล่านะ
      ผู้หญิงบอกรัก
      คนไม่พิเศษ
      สารภาพ
      จะว่าไหม
      จินตนาการ
      ไม่มีอะไรหรอก (Don't Worry)
      อึดอัด (Coz I love him)
    Next 15.79% ( 3)  Korean coffee shop
    Next 10.53% ( 2)  เปิดซิงเพลงใหม่
    Next 10.53% ( 2)  ชิล ๆ ในคาเฟ่
    Next 10.53% ( 2)  คลื่นแสตมป์
    Next  5.26% ( 1)  โด๋ว มรกต โกมลบุตร
    Next  5.26% ( 1)  เดินไปฟังไป
    Next  5.26% ( 1)  เบเกอรี่ เลิฟอิส ฮิต

 33 Current: เพลงข้างสนาม  (visited 20 times)
      Carnaval De Paris
      Sign of a Victory
      Anthem
      To Be Number One
      Waka Waka
      The Cup of Life
      The World is Ours
      Campione 2000
      Wavin' Flag
      Oh Africa
      Head, First, Down 
      Stop for a Minute
      We Are The Champions
      The Final Countdown
      Olé, Olé, Olé (The Name of the Game)
      FIFA Anthem
      Champions League
    Next 35.00% ( 7)  เดินไปฟังไป
    Next 10.00% ( 2)  รวมเพลงจากญี่ปุ่น
    Next 10.00% ( 2)  หลับตาเถิดนะ
    Next 10.00% ( 2)  ฮิพ ฮิพ ปาร์ตี้เร้กเก้สการิมหาด
    Next  5.00% ( 1)  เบเกอรี่ เลิฟอิส ฮิต
    Next  5.00% ( 1)  คลื่นแสตมป์
    Next  5.00% ( 1)  K Indie อินดี้เกาหลี

 34 Current: "Hedwig" Soundtrack  (visited 20 times)
      The Origin of Love
      Wicked Little Town
      Wig In A Box
      The Angry Inch
      Tear Me Down
      Midnight Radio
      Sugar Daddy
      The Long Grift
      Hedwig's Lament & Exquisite Corpse
      Random Number Genration
    Next 15.00% ( 3)  โด๋ว มรกต โกมลบุตร
    Next 15.00% ( 3)  วันวานหวานเสมอ
    Next 10.00% ( 2)  "Her" Soundtrack
    Next 10.00% ( 2)  City night
    Next 10.00% ( 2)  "I am Sam" Soundtrack
    Next 10.00% ( 2)  รวมมิตรโอตาคุ
    Next  5.00% ( 1)  เบสกรึ่ม ๆ

 35 Current: ดูละครแล้วย้อนฟังเพลง  (visited 22 times)
      นาฬิกาตาย
      เมื่อไหร่จะได้พบเธอ OST. ละครพรพรหมอลเวง
      ให้รักมันโตในใจ
      เธอจะรักฉันหรือเปล่าไม่รู้
      หยุดรักยังไง
      เรื่องจริงยิ่งกว่านิยาย
      สิ่งดีๆ
      ดาวเกี้ยวเดือน
      รักแท้อยู่เหนือกาลเวลา
      อยากเป็นคนนั้น
      เงารัก
      อยากเป็นคนที่ทำให้เธอรู้สึกดี
      จะให้ฉันรักยังไง
      ไม่บอกเธอ
      อยากให้เธอได้ยินหัวใจ
      ร่มสีเทา
      ใจเอย
      มีไหมใครสักคน
      นับดาว
      ไม่พูดก็เข้าใจ
      เพียงชายคนนี้ (ไม่ใช่ผู้วิเศษ) เวอร์ชั่น R&B
      แบบไหนที่เธอรัก
      อย่าบอกฉันว่าให้ไป
    Next 16.67% ( 3)  Easy Listening
    Next  5.56% ( 1)  เปิดซิงเพลงใหม่
    Next  5.56% ( 1)  เบเกอรี่ เลิฟอิส ฮิต
    Next  5.56% ( 1)  อินดี้ FAT ยุคบุกเบิก
    Next  5.56% ( 1)  "Her" Soundtrack
    Next  5.56% ( 1)  Jack Johnson Station
    Next  5.56% ( 1)  เบสกรึ่ม ๆ

 36 Current: Trendy Kpop 2014  (visited 22 times)
      너의 모든 순간 
      짧은 치마 (Miniskirt)
      Talk To Me
      썸(Some) feat. 긱스 릴보이 (Lil Boi of Geeks)
      썸남썸녀 (feat. 휘성) (Peppermint Chocolate)
      숨소리 (Breath)
      Truth or Dare(진실 혹은 대담)
      Let It Go (Korean)
      Pass Me By
      So Wonderful
      마리오네트 (Marionette) 
      나성에 가면 (If go to Nasung)
      꽃향기 (Scent Of a Flower)
      좋았던 건, 아팠던 건 (When I Was... When U Were...)
      You Don't Love Me
      1004 (Angel)
      Something
      오늘 같은 눈물이 (Tears Fallin' Like Today)
      노래가 늘었어 (Singing Got Better) 
      LA SONG
      Lonely (없구나)  
      내 생각날 거야 (You'll Think Of Me)
      슬픈거짓말 (Sad Lie)
      Cha Cha
      그대가 분다 (Wind That Blows)
      결혼까지 생각했어 (Even thought of marriage)
      별에서 온 그대 (My Love From the Star)
      보름달 (Full Moon)
      Can't Stop
      해운대 (Haeundae)
    Next 18.18% ( 4)  รวมเพลงจากญี่ปุ่น
    Next 13.64% ( 3)  อินดี้ FAT ยุคบุกเบิก
    Next  9.09% ( 2)  โด๋ว มรกต โกมลบุตร
    Next  9.09% ( 2)  กระตุกหนังตา
    Next  9.09% ( 2)  K Indie อินดี้เกาหลี
    Next  4.55% ( 1)  Easy Listening
    Next  4.55% ( 1)  เปิดซิงเพลงใหม่

 37 Current: ป๊อบ ท็อปฮิต  (visited 24 times)
      คุณและคุณเท่านั้น
      ไม่บอกเธอ
      แฟ ost. กาแฟเขาช่อง
      อยู่คนเดียวอย่างนี้ก็ดี
      อาย
      ไม่สนิท
      เรื่องจริงยิ่งกว่านิยาย
      แหลก
      ยัง Feat. MildVocalist
      เหนื่อยเกินไปรึเปล่า (Love or Beloved)
      หูทวนลม
      แค่คุณ
      กี่พรุ่งนี้
      ไม่บอกรัก แต่รักมาก
      พูดทำไม
      เธอจะรักฉันได้ไหม
      ผ้าห่มของหัวใจ OST. หลานสาวนายพล
      เมื่อไหร่จะได้พบเธอ OST. ละครพรพรหมอลเวง
      สองใจรวมกัน - เอก Season Five Feat. โรส ศิรินทิพย์ (Ost.ฟ้ากระจ่างดาว) [Official MV HD]
      หยุดรักยังไง
      อยากเป็นคนที่ทำให้เธอรู้สึกดี
      Palmy ปาล์มมี่ - Shy Boy [Official Clean HD]
      คนปัจจุบัน : STAMP [Official Audio]
      กันและกัน
      เติมเต็ม
      La Ong Fong - รักไม่มีเบื่อ (OFFICIAL MV) | spicydisc.com
      โปรดเถิดรัก - COCKTAIL「Lyric Video」
      คำถามซึ่งไร้คนตอบ
      ได้ยินความรักบ้างไหม : P.O.P [Official MV]
      เพลงส่วนบุคคล - fellow fellow [Official Music Video]
      อยากให้เธอลอง
      ร (W8)
      เพียงข้างหลัง
      Your Garden 
      คืนนี้สบาย
      ดีอย่างไร 
    Next 13.04% ( 3)  เดินไปฟังไป
    Next  8.70% ( 2)  กระตุกหนังตา
    Next  8.70% ( 2)  ช่องเก้าการ์ตูน
    Next  4.35% ( 1)  เปิดซิงเพลงใหม่
    Next  4.35% ( 1)  อินดี้ FAT ยุคบุกเบิก
    Next  4.35% ( 1)  อินดี้ ณ ปัจจุบันขณะ
    Next  4.35% ( 1)  อินดี้ ตัวพ่อ

 38 Current: เพลงฮิตสมอลล์รูม  (visited 24 times)
      หลักหน่วย
      ว่าแล้ว
      โก้โก้
      ยอมแล้ว
      อุคริ จุ๊บุ๊ หุหุ
      ธิดาประจำอำเภอ
      หว่าเว้
      อรอนงค์ 
      ฮิตเหรอ
      Magazine
      เธอไม่อาจเอารักไปจากหัวใจ
      ลับสุดยอด
      รักแรกพบ 
      Cinderella
      หมุน 
      คนที่ยังไม่พร้อม
      เติมเต็ม
      ยกมือ
      ยังเก็บ
      อาย
      พูด
      จะเอาอะไร
      รักสนุก (NSA)
      ป่าสนในห้องหมายเลข 1
      ถึงเวลา...
      ยินดีต้อนรับ
      เมื่อเธอมาส่ง
      ความพยายามกลายเป็นศูนย์
      ฝันส่วนตัว 
      Good Morning
      ขอ (WARM EYES)
      เซโรงัง
    Next 15.00% ( 3)  Easy Listening
    Next 15.00% ( 3)  เดินไปฟังไป
    Next 10.00% ( 2)  อินดี้ ตัวพ่อ
    Next  5.00% ( 1)  เบเกอรี่ เลิฟอิส ฮิต
    Next  5.00% ( 1)  ชิล ๆ ยามเช้า
    Next  5.00% ( 1)  เบสกรึ่ม ๆ
    Next  5.00% ( 1)  City night

 39 Current: ร็อค ท็อปฮิต  (visited 24 times)
      ดนตรี...เพื่อชีวิต
      ชีวิตเป็นของเรา
      เปราะบาง
      แดนเนรมิต
      ลมเปลี่ยนทิศ
      ความพยายาม
      Dancing
      ไกลแค่ไหน คือ ใกล้
      อกหัก
      ความจริงที่เจ็บปวด
      ใจเรายังตรงกันอยู่ไหม
      เท่าที่มี 
      ภูมิแพ้กรุงเทพ
      ถ้ามันมี..
      วายร้าย
      เจ็บกว่าคือฉัน
      ฮู้ ฮู
      เจ็บไปรักไป 
      พูดลอยลอย 
      ปล่อย 
      แตกต่างเหมือนกัน
      น้ำตาสุดท้าย
      เหตุผลข้อเดียว
      อย่างน้อย
    Next  9.09% ( 2)  K ballad เพลงรักเกาหลี
    Next  9.09% ( 2)  รวมมิตรโอตาคุ
    Next  9.09% ( 2)  เลิกเหอะ
    Next  4.55% ( 1)  โด๋ว มรกต โกมลบุตร
    Next  4.55% ( 1)  เบเกอรี่ เลิฟอิส ฮิต
    Next  4.55% ( 1)  อินดี้ FAT ยุคบุกเบิก
    Next  4.55% ( 1)  Jack Johnson Station

 40 Current: สตริงคอมโบ  (visited 24 times)
      นางพญากับคนป่า
      เก่า เก่า
      คอย
      รอวันฉันรักเธอ
      เด็กฮาท์ร
      ตี๋อาดิแดส
      กระต่ายตาซน
      จะอย่างไร
      รักที่สูญเปล่า
      รักฉันนั้นเพื่อเธอ 
      อย่าให้เป็นเช่นนั้นเลย 
      วอนลม 
      เจ้าโต
      รักที่หลุดลอย 
      ใจรัก 
      ทางสายเปลี่ยว 
      ใจสยิว
      สิ่งที่เธอให้
      ประตูใจ
    Next  8.33% ( 2)  รวมเพลงจากญี่ปุ่น
    Next  8.33% ( 2)  วันวานหวานเสมอ
    Next  8.33% ( 2)  ริมน้ำ
    Next  8.33% ( 2)  ขนมชั้นใบเตย
    Next  4.17% ( 1)  เปิดซิงเพลงใหม่
    Next  4.17% ( 1)  ชิล ๆ ยามเช้า
    Next  4.17% ( 1)  อินดี้ FAT ยุคบุกเบิก

 41 Current: ช่องเก้าการ์ตูน  (visited 24 times)
      เก็บฝัน (Yume Ippai)
      หัวใจเต้นระทึก (Mune ga doki doki)
      ไฟในฝน (Just Communication)
      ปีกรัก (Butter-Fly)
      วันที่มีเรา (I Wish)
      เจ็ดในหนึ่ง (Sevne)
      หัวใจที่กล้าแกร่ง (Brave Heart)
      ใจแรงสูง (Itsumo Itsudemo,Always Whenever)
      ดาวนักสู้ (Ashita wa Atashi no Kaze ga Fuku, My wind will blow tomorrow)
      ออกอาวุธ (Break Up!)
      สองแรงบวก (Beat Hit)
      ใส่เข้าไป (SLASH!!!)
      ชาลาลา (Sha La La)
      แม่มดวัยหวาน (pirika piri LUCKY!)
      แดนแดน (Dan Dan Kokoro Hikareteku)
      โลกต้องยอม (Hitori Janai)
      มอนสเตอร์นักสู้ (Miho Komatsu)
      เบย์เบลดกระแทกทะลุโลก
      อาราเล่
      ชิน โนะ สุ เกะ
      หัวใจนักซิ่งสายฟ้า
      หน้ากากเสือ (TIGER MASK)
      วันที่ยิ่งใหญ่ (My Tomorrow)
      The Biggest Dreamer
      Evolution (EVO)
      ดิจิมอน 02 (Target)
      ห่วงใย (opening Sailor Moon)
    Next 22.73% ( 5)  เปิดซิงเพลงใหม่
    Next  9.09% ( 2)  รวมเพลงจากญี่ปุ่น
    Next  9.09% ( 2)  รักหวาน ๆ
    Next  9.09% ( 2)  เช้าวันหยุด Big Cleaning Day
    Next  9.09% ( 2)  ป๊อบ ท็อปฮิต
    Next  4.55% ( 1)  เดินไปฟังไป
    Next  4.55% ( 1)  อินดี้ FAT ยุคบุกเบิก

 42 Current: ล่องลอยไปในนิยาย  (visited 24 times)
      Somewhere only we know
      I See Fire
      明日晴れるかな
      How Long Will I Love You
      Somebody That I Used To Know (feat. Kimbra) 
      Imik Simik
      A Thousand Years
      No Surprises
      คนที่รออยู่
      Notre échec
      เพ้อ
      The Scientist
      Love of my life
      Bohemian Rhapsody
    Next 17.39% ( 4)  ไปปาร์ตี้ ไปวิ่ง ไปซิ่ง 
    Next 17.39% ( 4)  Taylor Swift Station
    Next 13.04% ( 3)  หลับตาเถิดนะ
    Next  8.70% ( 2)  เดินไปฟังไป
    Next  8.70% ( 2)  ฮิพ ฮิพ ปาร์ตี้เร้กเก้สการิมหาด
    Next  4.35% ( 1)  Easy Listening
    Next  4.35% ( 1)  Jack Johnson Station

 43 Current: เหยียบมิดไมล์  (visited 26 times)
      ว่าแล้ว
      เก๊ก
      อรอนงค์ 
      Cinderella
      อาย
      พูด
      รักสนุก (NSA)
      เรือเล็กควรออกจากฝั่ง
      อ๊อด อ๊อด
      ผ่าน
      เคลิ้ม
      กา กา กา
      เท่าที่มี 
      โลกใบใหม่
      จันทร์เจ้า
      คราม
      เปลี่ยน
      Slow Motion
      ยาพิษ
      วัดใจ
      SkaVariety (สกาวาไรตี้)
      คุกเข่า
      ใครบางคนจากบนฟ้า
      ขาหมู
      ความเชื่อ (Feat. ยืนยง โอภากุล)
      อย่างน้อย
      เซโรงัง
      ตาสว่าง
      กระเป๋าแบนแฟนยิ้ม
      ทุ้มอยู่ในใจ
    Next 13.04% ( 3)  ไปปาร์ตี้ ไปวิ่ง ไปซิ่ง 
    Next  8.70% ( 2)  Easy Listening
    Next  8.70% ( 2)  แข็งแกร่งที่สุดในปฐพี
    Next  4.35% ( 1)  เปิดซิงเพลงใหม่
    Next  4.35% ( 1)  เบเกอรี่ เลิฟอิส ฮิต
    Next  4.35% ( 1)  ชิล ๆ ยามเช้า
    Next  4.35% ( 1)  อินดี้ FAT ยุคบุกเบิก

 44 Current: เช้าวันหยุด Big Cleaning Day  (visited 26 times)
      อาย
      ทิ้ง
      วันสุข 
      Vacation Time
      ฉันหวังว่าฉันผิด (Prove me wrong)
      คิดมาก
      แฟนคนนึง (Your Girl) 
      เธอเหนื่อยมั้ย
      เคลิ้ม
      ดีอย่างไร 
      ดวงรายสัปดาห์
      ทุ่งดอกไม้บาน
      ลงตัว
      รอเธอมาบอกรัก 
      แน่ใจ
      เพิ่งจะรู้
      นาฬิกา 
      Cinderella
      บูมเมอแรง
      Eh, Eh (Nothing Else I Can Say)
      Whistle For The Choir
    Next 10.00% ( 2)  ขนมชั้นใบเตย
    Next 10.00% ( 2)  "I am Sam" Soundtrack
    Next 10.00% ( 2)  ช่องเก้าการ์ตูน
    Next  5.00% ( 1)  Easy Listening
    Next  5.00% ( 1)  เดินไปฟังไป
    Next  5.00% ( 1)  ชิล ๆ ยามเช้า
    Next  5.00% ( 1)  อินดี้ FAT ยุคบุกเบิก

 45 Current: อกหักรักคุด  (visited 28 times)
      ยินดีต้อนรับ
      แหลก
      เธอไม่อาจเอารักไปจากหัวใจ
      ยังเก็บ
      ตั้งใจ - เอ๊ะ จิรากร !!!
      ผิดที่ไว้ใจ
      ความพยายามกลายเป็นศูนย์
      ใจบางบาง
      ลมเปลี่ยนทิศ - BIG ASS「Official Audio」
      ปล่อย 
      ผงเข้าตา
      ง่ายเกินไป
      แผลในใจ
      คำถามซึ่งไร้คนตอบ
      ขอบใจที่พูดเเรงๆ (แบบผู้ชาย)
      ข่าวร้าย
      ความรัก
      ทิ้ง
      แกล้งรัก
      หากฉันตาย
      [อันนี้เป็นเมดเล่รวมทุกอย่าง] รวมเพลง''ให้กำลังใจ''
      อย่าร้องไห้
      มากไปหรือเปล่า
      คนเดิม
      ความคิด
      หมดหัวใจ
      พยายาม 
      พูดลอยลอย 
      ที่ฉันรู้
      คำถามโง่ๆ Feat. Lipta
      ภาพเก่าๆ
      อย่าทำอย่างนี้ไม่ว่ากับใคร...เข้าใจไหม
      หยดน้ำ
      อธิบาย
      ความทรงจำในค่ำฤดูร้อน
      ไม่ใช่อิจฉา (Jealous)
      เกือบ
    Next 18.52% ( 5)  ขนมชั้นใบเตย
    Next  7.41% ( 2)  เบเกอรี่ เลิฟอิส ฮิต
    Next  7.41% ( 2)  Jack Johnson Station
    Next  7.41% ( 2)  กระตุกหนังตา
    Next  7.41% ( 2)  คลื่นโมเดิร์นด็อก
    Next  3.70% ( 1)  ชิล ๆ ยามเช้า
    Next  3.70% ( 1)  ชิล ๆ ในคาเฟ่

 46 Current: LIVE VIBE  (visited 28 times)
      I don't know
      Love is a laser quest (Live on KEXP)
      Don't look back into the sun
      Goin to the party
      Honey & I
      Modern Man
      At the flophouse
      Hey Lover
      Running if you call my name
      Mushaboom
      Closer
      River of tears
      Modern Nature
      Long Haul
      Act of apostle
      Another sunny day
      หลง
      My stupid mouth
      Contact High
      Escapee
    Next 32.14% ( 9)  โด๋ว มรกต โกมลบุตร
    Next 14.29% ( 4)  City night
    Next 10.71% ( 3)  Gone deaf in one ear
    Next 10.71% ( 3)  สุขเบา ๆ 
    Next  7.14% ( 2)  Easy Listening
    Next  3.57% ( 1)  อินดี้ FAT ยุคบุกเบิก
    Next  3.57% ( 1)  "Her" Soundtrack

 47 Current: กล่อม  (visited 30 times)
      แสนรัก
      หลับตา
      แก่ลงอยู่ทุกวัน
      ป่าสนในห้องหมายเลข 1
      แก่นรัก
      ภายใต้ท้องฟ้าสีดำ
      หมุน 
      น้อย 
      ขอดาว
      ฝันไป
      แด่คนเคยรัก
      ใจบางบาง
      ลมหนาว
      ดาว 
      เพราะอะไร
      หลับตา
      Home (ปั่น ไพบูลเกียรติ เขียวแก้ว)
      จงรัก
      ความทรงจํา
      เพราะเธอ
      เพื่อนกัน
      ความทรงจำสีจาง
      เธอยังคงมีฉัน
      นิทานหิ่งห้อย
      คิดถึง
      ยังจำไว้
      อธิฐาน
      ริมน้ำคืนหนึ่ง
      ขวัญเอย
      ห่างแสนไกล (Distant) 32 October Band (Official MV)
      เราจะข้ามเวลามาพบกัน
      ลมหายใจ
    Next 13.33% ( 4)  อินดี้ FAT ยุคบุกเบิก
    Next 13.33% ( 4)  ขับรถเพลิน ๆ
    Next 10.00% ( 3)  Easy Listening
    Next  6.67% ( 2)  โด๋ว มรกต โกมลบุตร
    Next  6.67% ( 2)  เปิดซิงเพลงใหม่
    Next  6.67% ( 2)  อินดี้ ณ ปัจจุบันขณะ
    Next  6.67% ( 2)  วันวานหวานเสมอ

 48 Current: รักหวาน ๆ  (visited 30 times)
      เติมเต็ม
      ลับสุดยอด
      ดินแดนแห่งความรัก
      รักแรกพบ 
      ที่รัก(เธอ)
      Good Morning
      ถูกคนแล้ว
      ไม่เคยไม่รักเธอ
      เบา เบา
      ความหวาน 
      มันคงเป็นความรัก 
      ลูกอม
      กอดเธอได้ไหม
      กังวล
      แอบชอบ
      มีเธอ
      ฉันมีความสุข   
      อยู่ต่อเลยได้ไหม 
      คนน่ารักมักใจร้าย
      จูบ (Kiss)
      คนบนฟ้า
      รักนิรันดร์
      ให้รักมันโตในใจ
      ต่าง  
      รักครั้งเดียว
      รักแท้อยู่เหนือกาลเวลา - Pop Pongkool (Official Lyrics)
      ข้อความ 
      รู้สึกไหม 
      ทำไมต้องรักเธอ
      ครึ่งหนึ่ง
      ฉันดีใจที่มีเธอ บอย โกสิยพงษ์ Ft. ใหม่
      ไม่พูดก็เข้าใจ - แพรว, โต๋ [Official MV]
      ฤดูความรักผลิ (Spring) - ลุลา [Official MV]
      รักเธอ 24 ชั่วโมง - แกงส้ม The Star Official MV
      ที่รัก- ปราโมทย์ ปาทาน [Official MV]
      อาการรัก
      รักไม่ต้องการเวลา
      คู่กัน
      หากเธอจะรัก (feat.ปราโมทย์ฯ) - โบว์ลิ่ง [MV]
      ภาษาดอกไม้
      มากกว่ารัก - พีท พล นพวิชัย
      หนึ่งในไม่กี่คน
      คิดจะรักก็รัก - Soul After Six.wmv
      จักรวาล 
      ฉันต้องคู่กับเธอ
      หวานเย็น
      ต่างใจเดียว
      MV มันคือความรัก  Lazy Sunday 2 [Official]
      ไม่มีใครรู้
      MV ฝัน หวาน อาย จูบ
      แค่เพียงได้รู้
      กาลครั้งหนึ่ง...ความรัก
      เสียงลมหายใจ
      แค่คุณ
      เธอคือของขวัญ
      คำถาม
      ลมหายใจ
      รักคุณเข้าอีกแล้ว
      ฉันดีใจที่มีเธอ Feat. ใหม่
      ฉันทำทุกๆอย่างให้เธอมีความสุข
      รักที่มากกว่า
      รักแท้
      เพลงรัก
      ใคร ​Feat. ธนชัย อุชชิน
      กันและกัน
      แน่ใจ
      ขอเมารักให้หัวปักหัวปำ 
      ความรัก 
    Next 11.54% ( 3)  ชิล ๆ ยามเช้า
    Next  7.69% ( 2)  เบสกรึ่ม ๆ
    Next  7.69% ( 2)  กระตุกหนังตา
    Next  7.69% ( 2)  ขนมชั้นใบเตย
    Next  7.69% ( 2)  เดอะวอยซ์รวมฮิต
    Next  7.69% ( 2)  ช่องเก้าการ์ตูน
    Next  3.85% ( 1)  อินดี้ FAT ยุคบุกเบิก

 49 Current: รวมมิตรโอตาคุ  (visited 32 times)
      UNBALANCE
      Love is war
      Footsteps of Time
      Maze
      Romeo and Cinderella
      Magnet
      kokoro
      world is mine
      Pierrot
      Black cat
      Reflect
      Parallel Hearts
      Astronaut
      Badbye
      Every time you kissed me
      Busters! Ready Go!
      Kizuna
      Kamen rider V1 V2 V3
      Brave Heart
      Fire
      Wind
      夕空の紙飛行機 (Yuusora no kami hikouki)
      残酷な天使のテーゼ (Zankoku na Tenshi no Tēze)
      ムーンライト伝説 (Moonlight Densetsu)
      セーラースターソング (Sailor Star Song)
      風も空もきっと・・・(Kaze mo sora mo kitto)
      "らしく"いきましょ (Rashiku ikimasho)
      タキシード・ミラージュ (Tuxedo Miracle)
      Buffer-fly
      God Knows
      エンジェルビーツ! 
      さよなら (Sayonara)
      緋色の空 (Hishoku no sora)
      Fly Me To The Moon
      You
      メリッサ (Melissa)
      ガーネット (Ganetto)
      変わらないもの (Kawaranai mono)
    Next  7.69% ( 2)  เดินไปฟังไป
    Next  7.69% ( 2)  Jack Johnson Station
    Next  7.69% ( 2)  รวมเพลงจากญี่ปุ่น
    Next  7.69% ( 2)  ครุ่นคิดถึงความหมาย
    Next  7.69% ( 2)  ร็อค ท็อปฮิต
    Next  7.69% ( 2)  "Hedwig" Soundtrack
    Next  3.85% ( 1)  Easy Listening

 50 Current: K ballad เพลงรักเกาหลี  (visited 34 times)
      세상의 모든 인연 (Feat. 박원 of 원모어찬스) (Every destiny in the world)
      들리나요 (Can you hear me)
      그리고 하나 (And one)
      조수미 - 나 가거든
      Always Be There
      말꼬리 (Feat. 정준일-Mate) (Picking at words)
      사랑 안해 (I will not love)
      그녀안의 나 (Under her shadow)
      사랑한만큼 (To Some Degree of Love)
      스물다섯, 스물하나 (25, 21)
      한 번 더 이별 (One more break up)
      너에게 (To You)
      좋았나봐 (Last In Love)
      그 흔한 남자여서 (Because I Am A Common Man)
      여전히 아름다운지 (Still Beautiful)
      다시 사랑한다 말할까 (Say I love you again)
    Next  9.38% ( 3)  K Indie อินดี้เกาหลี
    Next  9.38% ( 3)  คลื่นโมเดิร์นด็อก
    Next  6.25% ( 2)  Korean rap songs 
    Next  6.25% ( 2)  Gone deaf in one ear
    Next  6.25% ( 2)  ร็อค ท็อปฮิต
    Next  6.25% ( 2)  ความห่างไกล
    Next  3.12% ( 1)  Easy Listening

 51 Current: เดอะวอยซ์รวมฮิต  (visited 34 times)
      I Feel Good  
      ฤดูที่ฉันเหงา  
      ที่ว่าง 
      กรุณาฟังให้จบ
      หากรู้สักนิด 
      I don't wanna miss a thing 
      L.O.V.E. 
      Nothin' On You
      Home
      Killing Me Softly
      Valerie
      Dance Little Lady Dance 
      And I Am Telling You I'm Not Going
      ทำร้าย
      ไหนว่าจะไม่หลอกกัน
      คิดฮอด
      จันทร์เจ้า
      ไว้ใจ
      คุกเข่า
      Saving All My Love For You
      เสียใจแต่ไม่แคร์
      Kimi Ga Ireba Sore De Ii
      Superman (It's Not Easy) - กบ วีรศักดิ์ the voice thailand
      One and only 
      I don't want to miss thing
      Just The Way You Are
      กระเป๋าแบนแฟนยิ้ม
      รักคงยังไม่พอ
      คนถูกทิ้ง
      Nobody
      What's My Name
      Leaving On A Jet Plane
      โกหกหน้าตาย
    Next  9.68% ( 3)  เดินไปฟังไป
    Next  6.45% ( 2)  ชิล ๆ ยามเช้า
    Next  6.45% ( 2)  ชิล ๆ ในคาเฟ่
    Next  6.45% ( 2)  K Indie อินดี้เกาหลี
    Next  6.45% ( 2)  รักหวาน ๆ
    Next  6.45% ( 2)  เพลงคลาสิก หลับสบาย
    Next  3.23% ( 1)  Easy Listening

 52 Current: "I am Sam" Soundtrack  (visited 34 times)
      Blackbird
      Two of Us
      Across The Universe
      I'm Looking Through You
      You've Got To Hide Your Love Away
      Strawberry Fields Forever
      Mother Nature's Son
      Golden Slumbers
      I'm only sleeping 
      Don't let me down
      We can work it out
      Help 
      Evolution
      Let it be
    Next 20.59% ( 7)  หลับตาเถิดนะ
    Next 11.76% ( 4)  John Legend Station
    Next  8.82% ( 3)  Easy Listening
    Next  8.82% ( 3)  "Her" Soundtrack
    Next  8.82% ( 3)  อินดี้ ณ ปัจจุบันขณะ
    Next  5.88% ( 2)  เดินไปฟังไป
    Next  5.88% ( 2)  Jack Johnson Station

 53 Current: อินดี้ ท็อปฮิต  (visited 36 times)
      สิ่งเหล่านี้
      คนน่ารักมักใจร้าย
      ภาวนา
      ถ้าหาก
      พระเอก
      แน่ใจ
      ไม่เกี่ยวกับฟ้า
      หน่วง
      คืนนี้
      ค.เอ๋ย ค.คน
      บ้างไหม
      พูดไม่คิด
      ความจริงในใจ
      ยังไม่รู้
      หลักหน่วย
      หว่าเว้
      ว่าแล้ว
      อรอนงค์ 
      ฮิตเหรอ
      เธอไม่อาจเอารักไปจากหัวใจ
      รักแรกพบ 
      เติมเต็ม
      Good Morning
      [MV] COCKTAIL - เธอทำให้ฉันเสียใจ
      เก็บไว้ให้เธอ
      เบา เบา
      คนที่คุณก็รู้ว่าใคร
      รักคือสิ่งสวยงาม
      Sense - Jetset'er (เจ็ทเซ็ตเตอร์) [Official MV]
      ย้อนเวลา 
      แค่บางคำ : Musketeers
      MV ถ้าฉันเป็นเธอ บอล จารุลักษณ์
      ไกล
      เธอคือของขวัญ
      รู้บ้างไหม Crescendo Light
      ลืมไปก่อน Buddha Bless ft. เกรียน peace.flv
      25 hours - คนข้างๆ Official MV
      Dancing
      ไกลแค่ไหน คือ ใกล้
      ลูกอม
      Jida - ไม่เป็นอะไร [Official MV]
      เกือบ
      อีกนานไหม
      MILD มายด์ - กรรมตามสนอง (OFFICIAL AUDIO) | spicydisc.com
      กอดเธอได้ไหม
      ไม่ ใช่ ฉัน
      เจ้าชายกับเจ้าหญิง
      Musketeers - นิทาน (Official Lyric Video)
      Plastic Plastic - อยากรู้ (Official MV)
      รึเปล่า
      ชั่วโมงต้องมนต์ - Friday
      ร่มสีเทา - WhatChaRaWaLee
      เธอจะเชื่อไหม
      Official เธอทั้งนั้น : Groove Riders
      ไม่เคย-Synkornize
      วอน   The Peachband
      เคลิ้ม
      นาฬิกา 
      ewery - บางสิ่ง (ที่...ไป)
      Boy Imagine - ยินดี (Official Music Video)
      ฝืน - ลิปตา.wmv
      อธิบาย
      ถ้าเธอได้ฟังก่อน
      แค่บางคำ
      ผ่าน
      อยากให้เธอลอง
      คุกเข่า
      ปล่อย 
    Next 14.71% ( 5)  อินดี้ FAT ยุคบุกเบิก
    Next 11.76% ( 4)  อินดี้ ณ ปัจจุบันขณะ
    Next 11.76% ( 4)  อินดี้ ตัวพ่อ
    Next  5.88% ( 2)  เบเกอรี่ เลิฟอิส ฮิต
    Next  5.88% ( 2)  ชิล ๆ ยามเช้า
    Next  5.88% ( 2)  คลื่นแสตมป์
    Next  5.88% ( 2)  ครุ่นคิดถึงความหมาย

 54 Current: ครุ่นคิดถึงความหมาย  (visited 36 times)
      ไม่มีอะไรใหม่หรอก ทุกอย่างแม่งก็เก่าหมด 
      วาง
      เกือก
      แก่ลงอยู่ทุกวัน
      รัก
      จะเป็นยัังไง (ช่างมัน)
      ฤดูที่แตกต่าง
      เพื่อนเอ๋ย
      เรื่องนิดเดียว
      พอเสียที
      ความสุข
      ร่มสีเทา - WhatChaRaWaLee Plus
      Street Funk Rollers   ง่ายดาย
      สายลม
      คิดถึงจัง วงนั่งเล่น - สายลม
      สักวัน..แล้วมันก็ผ่านไป
      ชัยชนะ
      ล้มบ้างก็ได้
      Live and Learn
      ลิปสติกบนลิปสติก
      Animation
      ก่อน
      โลกไม่ใช่ของเรา
      ถ้าฉันไม่ตื่น
      พอ
      Employee Of The Month
    Next  9.68% ( 3)  Jack Johnson Station
    Next  6.45% ( 2)  ชิล ๆ ในคาเฟ่
    Next  6.45% ( 2)  Korean coffee shop
    Next  6.45% ( 2)  Gone deaf in one ear
    Next  6.45% ( 2)  กำลังใจ
    Next  6.45% ( 2)  อินดี้ ท็อปฮิต
    Next  6.45% ( 2)  รวมมิตรโอตาคุ

 55 Current: ขนมชั้นใบเตย  (visited 36 times)
      ใจรัก
      เธอจะรักฉันหรือเปล่าไม่รู้
      ความในใจ
      ใจเอย
      คนละภพ
      รักข้ามขอบฟ้า
      วนาสวาท
      โปรดถามสักคำ
      บุพเพสันนิวาส
      อย่าบอกฉันว่าให้ไป
      ทั้งรู้ก็รัก
    Next 14.71% ( 5)  อกหักรักคุด
    Next  5.88% ( 2)  เดินไปฟังไป
    Next  5.88% ( 2)  City night
    Next  5.88% ( 2)  รักหวาน ๆ
    Next  5.88% ( 2)  เช้าวันหยุด Big Cleaning Day
    Next  5.88% ( 2)  สตริงคอมโบ
    Next  2.94% ( 1)  เปิดซิงเพลงใหม่

 56 Current: กำลังใจ  (visited 38 times)
      ทะเลใจ
      ฤดูที่แตกต่าง
      จะเป็นยัังไง (ช่างมัน)
      มีเธอ
      เธอผู้ไม่แพ้
      เพื่อนเอ๋ย
      สักวัน..แล้วมันก็ผ่านไป
      ชัยชนะ
      ล้มบ้างก็ได้
      Live and Learn
      ผงเข้าตา
      สุดแต่ใจจะไขว่คว้า
      พลังรัก
      ยังยิ้มได้
      [อันนี้เป็นเมดเล่รวมทุกอย่าง] รวมเพลง''ให้กำลังใจ''
      รางวัลแด่คนช่างฝัน
      จากเพื่อนถึงเพื่อน
      เก็บตะวัน
      ไม่แข่งยิ่งแพ้
      ลูกยังไม่ท้อ
      มันอยู่ที่ใจ
      รอยยิ้มนักสู้
      ศรัทธา
      อย่ายอมแพ้
      ทำดีที่สุดแล้ว
      หัวใจ
      อยู่ที่ใจ
    Next 16.22% ( 6)  เปิดซิงเพลงใหม่
    Next 10.81% ( 4)  เบเกอรี่ เลิฟอิส ฮิต
    Next 10.81% ( 4)  "Her" Soundtrack
    Next 10.81% ( 4)  คลื่นแสตมป์
    Next  5.41% ( 2)  Easy Listening
    Next  5.41% ( 2)  Jack Johnson Station
    Next  5.41% ( 2)  เบสกรึ่ม ๆ

 57 Current: หลับตาเถิดนะ  (visited 38 times)
      Rain
      Paper Birds
      The Secret Garden
      Floating Away in Every Direction
      January Rain
      I'm Sleeping Under The Dead Tree
      In the Nothing Of a Night
      Elegy
      Miles Away, She Sleeps
      Snowflake
      Our Footsteps are Music
      Moonrise
    Next 18.42% ( 7)  "I am Sam" Soundtrack
    Next 15.79% ( 6)  เดินไปฟังไป
    Next 13.16% ( 5)  โด๋ว มรกต โกมลบุตร
    Next  7.89% ( 3)  ล่องลอยไปในนิยาย
    Next  5.26% ( 2)  Easy Listening
    Next  5.26% ( 2)  กล่อม
    Next  5.26% ( 2)  เพลงข้างสนาม

 58 Current: แอบรัก..เขิน  (visited 40 times)
      อาย
      รึเปล่า
      คำไม่กี่คำ
      ไม่บอกเธอ
      ทำไมต้องเธอ
      รักใครไม่ได้อีก
      แอบชอบ
      อยากให้เธอได้ยินหัวใจ
      รอรัก
       แค่บอกว่ารักเธอ
      เธอจะรักฉันหรือเปล่าไม่รู้
      เข้ากันดี
      กลัวเธอได้ยินคำว่ารัก
      สายตายาว
      แค่ได้พบเธอ
      ให้
      อย่ามองมาได้ไหม
      Love Sick
      รักล้นใจ
      ไม่ใกล้ไม่ไกล
      คนที่คุณก็รู้ว่าใคร
      จะทำยังไง Feat.ตู่ ภพธร
      อย่าเพิ่งไปเลย
      คำถามโง่ๆ Feat. Lipta
      คิดลึก
      ผมแอบชอบคุณอยู่
      ใคร ​Feat. ธนชัย อุชชิน
    Next 18.42% ( 7)  เบสกรึ่ม ๆ
    Next 10.53% ( 4)  Gone deaf in one ear
    Next  7.89% ( 3)  ขับรถเพลิน ๆ
    Next  5.26% ( 2)  Easy Listening
    Next  5.26% ( 2)  เปิดซิงเพลงใหม่
    Next  5.26% ( 2)  ชิล ๆ ในคาเฟ่
    Next  2.63% ( 1)  เดินไปฟังไป

 59 Current: ริมน้ำ  (visited 44 times)
      มนต์รักแม่น้ำมูล
      สองฝั่งคลอง
      ณ ริมน้ำ ยามราตรี
      ล่องแม่ปิง
      ริมน้ำคืนหนึ่ง
      ลมเอย
      เรือนไทยริมน้ำ (เพลงบรรเลงประกอบ ภาพยนต์ ทวิภพ)
      รัก
      หัวหินสิ้นมนต์รัก
      เรือนริมน้ำ (เพลงบรรเลงประกอบ ภาพยนต์ เรือนมยุรา)
      วิมานดิน
      ริมน้ำคืนหนึ่ง
      ริมฝั่งน้ำ
      ลาวคำหอม
      ลมเอย
    Next 14.29% ( 6)  เบเกอรี่ เลิฟอิส ฮิต
    Next 11.90% ( 5)  Easy Listening
    Next  9.52% ( 4)  สุขเบา ๆ 
    Next  4.76% ( 2)  ชิล ๆ ยามเช้า
    Next  4.76% ( 2)  "Her" Soundtrack
    Next  4.76% ( 2)  เบสกรึ่ม ๆ
    Next  4.76% ( 2)  "I am Sam" Soundtrack

 60 Current: Korean cute indy  (visited 44 times)
      내겐 그대만 있으면 돼요 (Original Song. Herz Analog) (I only need you)
      반가운 인사 (Feat. Junggigo) (Saying hello)
      Parade
      바람을 일으키다 (Causing the wind)
      Labor In Vain
      I Wanna B
      Nostalgia
      아 외로워 (Ah, lonely)
      모닝콜 (feat. 프롬) (Morning call)
      슬프다는 말 (The word sadness)
      허니 허니 베이비 (Honey honey baby)
      모닝콜 AM 07:00 (Morning call AM 07:00)
      언제 어른이 될까 (When would I become adult)
      Paper Mache
      커피를 마시고 (After coffee)
    Next 15.38% ( 6)  K Indie อินดี้เกาหลี
    Next 12.82% ( 5)  Korean rap songs 
    Next 10.26% ( 4)  รวมเพลงจากญี่ปุ่น
    Next 10.26% ( 4)  Korean coffee shop
    Next  5.13% ( 2)  John Legend Station
    Next  5.13% ( 2)  Gone deaf in one ear
    Next  2.56% ( 1)  Easy Listening

 61 Current: วันวานหวานเสมอ  (visited 46 times)
      เพียงครึ่งใจ
      เพราะเราเข้าใจ
      ใจรัก
      อยากให้รู้ใจ
      เก็บใจ
      แสนรัก
      ยังมี
      ทั้งรัก ทั้งเกลียด
      ขอเพียงที่พักใจ
      แค่เสียใจไม่พอ
      สงสารกันหน่อย
      ที่แล้วก็แล้วไป
      เพราะเธอหรือเปล่า
      ไม่ขอเป็นรอง
      สายเกินไป
      เธอจะเลือกใคร
      ลืมเสียเถิด
      ฉันรักผัวเขา
      โกหกหน้าตาย
      ทั้งรู้ก็รัก
      อวสานเซลส์แมน
      ไม่รักแต่คิดถึง
      จากเพื่อนถึงเพื่อน
      ขอจันทร์
      ตายทั้งเป็น
    Next  6.98% ( 3)  กระตุกหนังตา
    Next  6.98% ( 3)  "Hedwig" Soundtrack
    Next  4.65% ( 2)  โด๋ว มรกต โกมลบุตร
    Next  4.65% ( 2)  เดินไปฟังไป
    Next  4.65% ( 2)  เบเกอรี่ เลิฟอิส ฮิต
    Next  4.65% ( 2)  คลื่นแสตมป์
    Next  4.65% ( 2)  John Legend Station

 62 Current: แข็งแกร่งที่สุดในปฐพี  (visited 48 times)
      จอมยุทธ์
      กระบี่ไร้เทียมทาน
      เจ้าพ่อเซี่ยงไฮ้ (上海灘)
      เปาชิงเทียน (包青天)
      ชัชชาติดาดั๊ด คนไร้พ่าย
      Gangnam Style (강남스타일)
      อยู่อย่างสิงห์
      คนจริง
      Getter Robo (ゲッターロボ!)
      ผมรักเมืองไทย (I love you Thailand)
      Genghis Khan
      Tragedy
      มนุษย์ค้างคาว
      Superman (It's Not Easy)
      I Believe I Can Fly
      U Can't Touch This
      I Don't Wanna Miss a Thing Lyrics
      ตำรวจเหล็กจีบัน
      Kamen Rider Ichigo Theme Song
      Galaxy Express 999
      대박이야
      Detective Conan Theme Song: Kimi Ga Ireba
      Dragon Ball Z Opening (1989)
      เพลงเปิด เซนต์เซย่า ภาค6
      Kung fu fighting
    Next  9.76% ( 4)  เปิดซิงเพลงใหม่
    Next  7.32% ( 3)  ไปปาร์ตี้ ไปวิ่ง ไปซิ่ง 
    Next  7.32% ( 3)  ขับรถเพลิน ๆ
    Next  4.88% ( 2)  ชิล ๆ ยามเช้า
    Next  4.88% ( 2)  ชิล ๆ ในคาเฟ่
    Next  4.88% ( 2)  คลื่นแสตมป์
    Next  4.88% ( 2)  อินดี้ ณ ปัจจุบันขณะ

 63 Current: "Get lucky" Cover  (visited 52 times)
      Get Lucky Cover
      Get Lucky (A Cappella Cover)
      Get Lucky Cover 
      Get Lucky (Piano Cover)
      Get Lucky (Daft Punk cover)
      Get Lucky (Looped Cello Cover)
      Daft Pianists (An Impromptu Session)
      Get Lucky (Fingerstyle Guitar / Acoustic Interpretation)
      Get Lucky (Acoustic Cover)
    Next 14.29% ( 7)  เดินไปฟังไป
    Next  6.12% ( 3)  ไปปาร์ตี้ ไปวิ่ง ไปซิ่ง 
    Next  6.12% ( 3)  Gone deaf in one ear
    Next  4.08% ( 2)  Easy Listening
    Next  4.08% ( 2)  เปิดซิงเพลงใหม่
    Next  4.08% ( 2)  เบเกอรี่ เลิฟอิส ฮิต
    Next  4.08% ( 2)  ชิล ๆ ยามเช้า

 64 Current: สุขเบา ๆ   (visited 52 times)
      คำถาม
      ลมหนาว
      แอบชอบ
      อาย
      อาการรัก
      ทุกอย่าง
      อากาศดีดี
      ยิ้ม
      ยังอยากรู้
      แค่อยากรู้
      Minute of Love
      หากรู้สักนิด
      ของขวัญ
      เธอคือของขวัญ
      เธอทั้งนั้น
      คนธรรมดา
      อยู่บำรุง
      บีบมือ
      คนไม่พิเศษ
      ชั่วโมงต้องมนต์
      วันสุข 
      ที่ว่าง 
      คนที่แสนดี 
    Next 19.15% ( 9)  "Her" Soundtrack
    Next 10.64% ( 5)  ชิล ๆ ในคาเฟ่
    Next  8.51% ( 4)  ชิล ๆ ยามเช้า
    Next  8.51% ( 4)  ริมน้ำ
    Next  6.38% ( 3)  เปิดซิงเพลงใหม่
    Next  6.38% ( 3)  อินดี้ FAT ยุคบุกเบิก
    Next  6.38% ( 3)  LIVE VIBE

 65 Current: Taylor Swift Station  (visited 52 times)
      Everything Has Changed ft. Ed Sheeran
      Love Story
      Ours
      Safe & Sound ft. The Civil Wars
      Begin Again
      You Belong With Me
      Back To December
      Mean
      White Horse
      Enchanted
      Mine
      Teardrops On My Guitar
      Sweeter Than Fiction
      Stay Stay Stay
      Eyes Open
      Fifteen
      Fearless
      Breathe
      22
      Red
      I Knew You Were Trouble
      We Are Never Getting Back Together
    Next 14.29% ( 7)  Easy Listening
    Next 12.24% ( 6)  ชิล ๆ ยามเช้า
    Next 10.20% ( 5)  อินดี้ ณ ปัจจุบันขณะ
    Next  8.16% ( 4)  เดินไปฟังไป
    Next  8.16% ( 4)  ล่องลอยไปในนิยาย
    Next  6.12% ( 3)  Korean rap songs 
    Next  4.08% ( 2)  City night

 66 Current: คลื่นโมเดิร์นด็อก  (visited 56 times)
      เธอเท่านั้น
      Happiness is...
      เธอคือความฝัน
      ผ่าน
      ความทรงจำ
      สิ่งที่ไม่เคยบอก
      ลิปสติกบนลิปสติก
      ทำได้เพียง
      โอน้อยออก
      บุษบา
      เท่ากับที่เดิม
      กันและกัน
      เธอให้มา
      ก่อน
      ตาสว่าง
      อีสานคลาสสิก
      บนฟ้า
      ที่จริงในใจ
      ถามจันทร์ 
      กลับมาที่เดิม
    Next  8.89% ( 4)  โด๋ว มรกต โกมลบุตร
    Next  6.67% ( 3)  เดินไปฟังไป
    Next  6.67% ( 3)  "Her" Soundtrack
    Next  6.67% ( 3)  K ballad เพลงรักเกาหลี
    Next  4.44% ( 2)  Easy Listening
    Next  4.44% ( 2)  เปิดซิงเพลงใหม่
    Next  4.44% ( 2)  City night

 67 Current: อินดี้ ตัวพ่อ  (visited 56 times)
      Somewhere
      วาง
      สิ่งดีดี
      มอง
      ชีวิตที่ผ่านน้ำ
      ลิปสติกบนลิปสติก
      ปรากฏการณ์
      ไม่รู้จักฉันไม่รู้จักเธอ
      อพาร์ตเมนต์คุณป้า
      อิสระในความเมา
      กำแพง
      แก่ลงอยู่ทุกวัน
      ยังจำ
      ถ้วยกาแฟที่ถูกลืม
      สุดท้ายก็คือนิพพาน
      เสือร้องไห้
      ทุกทุกวัน
      เช้า : SOL Sessions
      ควันจางลา
      หลังจากฝัน
      น้ำค้าง
      เหม่อ
      มอเตอร์ไซค์
      เพียงแค่วันหนึ่ง
      เรือชูชีพ
      ไปในดาว
      รุ้สึก
      เวลาที่มี
      ลั่นทม
    Next 12.24% ( 6)  อินดี้ ณ ปัจจุบันขณะ
    Next 10.20% ( 5)  อินดี้ FAT ยุคบุกเบิก
    Next  8.16% ( 4)  อินดี้ ท็อปฮิต
    Next  6.12% ( 3)  Gone deaf in one ear
    Next  4.08% ( 2)  Easy Listening
    Next  4.08% ( 2)  คลื่นโมเดิร์นด็อก
    Next  4.08% ( 2)  เพลงฮิตสมอลล์รูม

 68 Current: K Indie อินดี้เกาหลี  (visited 56 times)
      그저 그런 하루 (Ordinary day)
      모닝콜 (feat. 프롬) (Morning call)
      아침산책 (Morning walk)
      공원여행 (Garden travel)
      EV1
      바라만 봐도 좋은데 (I like to look at you)
      이게 사랑일까 (Is This Love)
      고등어 (Mackerel)
      Romantico
      살빼지 마요 (Do not lose weight please)
      기억을 걷는 시간 (Walking through the time of remembrance)
      Love Paisley Love
      활엽수 (Broadleaf tree)
      아무도 모르게 (Nobody knows)
      바람의 약속 (Promise of the wind)
      왜 이제야 왔니 (Why are you coming now)
      컬러링 (Ring back tone)
      담담하게 (Calm)
      진달래타이머 (Azalea timer)
      허니 허니 베이비 (Honey honey baby)
      망설이지 마요 (Please don't hesitate)
      나를 연애하게 하라 (Make me in love)
      우리 만난 적 있나요 (Have we meet before)
      가끔 미치도록 네가 안고 싶어질 때가 있어 (Sometimes I really want to hug you)
      Labor In Vain
      Runner's high
      Eyekiss (feat. 강현준) of 사랑의 단상
      선인장 (Cactus)
      우리 처음 만난 날 (the day when we met first time)
      Just For You
    Next 11.54% ( 6)  Korean cute indy
    Next  9.62% ( 5)  Easy Listening
    Next  5.77% ( 3)  Jack Johnson Station
    Next  5.77% ( 3)  Korean coffee shop
    Next  5.77% ( 3)  Korean rap songs 
    Next  5.77% ( 3)  K ballad เพลงรักเกาหลี
    Next  3.85% ( 2)  เปิดซิงเพลงใหม่

 69 Current: Gone deaf in one ear  (visited 56 times)
      I want you
      The Hellcat Spangled Shalalala
      Harper Lee
      Miracle Mile
      Stop Stop
      Running if you call my name
      What Became of the LIkely Lad
      Where does the good go
      Snap out of it
      Innocent
      Consolation Prizes
      I would do anything for you
      Something good can work
      Kiss with a fist
      Run
      hurricane
      Knee socks
      The suburbs
      Honey & I
      Hang loose
      Hang me up to dry
      We are the people
    Next  7.69% ( 4)  Easy Listening
    Next  7.69% ( 4)  "Her" Soundtrack
    Next  7.69% ( 4)  Jack Johnson Station
    Next  7.69% ( 4)  แอบรัก..เขิน
    Next  5.77% ( 3)  อินดี้ ณ ปัจจุบันขณะ
    Next  5.77% ( 3)  อินดี้ ตัวพ่อ
    Next  5.77% ( 3)  "Get lucky" Cover

 70 Current: John Legend Station  (visited 62 times)
      Compared To What
      Used to Love U
      Do You Feel Me
      By Your Side
      Halfcrazy
      Never Too Much
      All At Sea
      Let's Get Lifted
      Each Day Gets Better
      P.D.A. (We Just Don't Care)
      Happy
    Next 15.25% ( 9)  Easy Listening
    Next  6.78% ( 4)  เดินไปฟังไป
    Next  6.78% ( 4)  "I am Sam" Soundtrack
    Next  5.08% ( 3)  โด๋ว มรกต โกมลบุตร
    Next  5.08% ( 3)  City night
    Next  5.08% ( 3)  ไปปาร์ตี้ ไปวิ่ง ไปซิ่ง 
    Next  3.39% ( 2)  เปิดซิงเพลงใหม่

 71 Current: ขับรถเพลิน ๆ  (visited 62 times)
      ยกมือ
      แก่นรัก
      รักแรกพบ 
      ยัง Feat. MildVocalist
      พูดไม่คิด
      แหลก
      อรอนงค์ 
      ลับสุดยอด
      หมุน 
      เติมเต็ม
      สยามรำลึก
      ยังเก็บ
      จะเอาอะไร
      ยินดีต้อนรับ
      เมื่อเธอมาส่ง
      Good Morning
      น้อย 
      แพ้คำว่ารัก
      เก็บไว้ให้เธอ
      ไม่เคยไม่รักเธอ
      เบา เบา
      รักคือสิ่งสวยงาม
      25 hours - คนข้างๆ Official MV
      รึเปล่า
      กังวล
      ฉันมีความสุข   
      เพื่อนเอ๋ย
      หวานเย็น
      ละอองฟอง La Ong Fong - รักเปิดเผย Openly Love
      ฉันหวังว่าฉันผิด (Prove me wrong)
      Groove Riders กรู๊ฟ ไรเดอร์ - เธอทั้งนั้น
      ทฤษฎีสีชมพู – แสตมป์ 7th SCENE
      คนน่ารักมักใจร้าย
      จูบ (Kiss)
      เอ่อเอ่อคือว่าฉัน..รักเธอ -The Bottom Blues [Full MV]
      24.7 - singular
      กอด - Groove Riders
      รู้บ้างไหม - Cressendo.wmv
       แค่บอกว่ารักเธอ
      คนบนฟ้า
      นาฬิกา 
      ewery - บางสิ่ง (ที่...ไป)
      เธอคือของขวัญ
      ลมหายใจ
      พักสักวัน 
      สะกดใจ (Geyster Remix)
      พลั้ง
      ขอเมารักให้หัวปักหัวปำ 
      ครั้งแรก 
    Next 12.28% ( 7)  ชิล ๆ ในคาเฟ่
    Next  7.02% ( 4)  Easy Listening
    Next  7.02% ( 4)  กล่อม
    Next  5.26% ( 3)  ชิล ๆ ยามเช้า
    Next  5.26% ( 3)  คลื่นแสตมป์
    Next  5.26% ( 3)  Korean coffee shop
    Next  5.26% ( 3)  แข็งแกร่งที่สุดในปฐพี

 72 Current: Korean rap songs   (visited 64 times)
      나쁘다 (Bad)
      그땐그땐그땐 (Then then then)
      너 때문이야 (Feat. Soulman) (Because of you)
      Ballerino
      BK Love
      아이스크림 (Ice Cream)
      우산 (Umbrella)
      Y (Please Tell Me Why)
      몽환의 숲 (Fantasy forest)
      Lonely Night
      별사탕 (Feat. 범키) (Star candy)
      뻑이가요 (Knock out)
    Next 15.87% (10)  อินดี้ FAT ยุคบุกเบิก
    Next  7.94% ( 5)  Korean cute indy
    Next  6.35% ( 4)  รวมเพลงจากญี่ปุ่น
    Next  4.76% ( 3)  Easy Listening
    Next  4.76% ( 3)  "Her" Soundtrack
    Next  4.76% ( 3)  City night
    Next  4.76% ( 3)  K Indie อินดี้เกาหลี

 73 Current: กระตุกหนังตา  (visited 66 times)
      ไม่มีอะไรใหม่หรอก ทุกอย่างแม่งก็เก่าหมด 
      ถามจันทร์ 
      พูดทำไม
      โก้โก้
      ชั่วโมงต้องมนต์
      ไม่บอกรัก แต่รักมาก
      รอพี่ก่อน
      เมื่อไหร่จะได้พบเธอ OST. ละครพรพรหมอลเวง
      หว่าเว้
      เก๊ก
      คนที่ยังไม่พร้อม
      อาย
      พูด
      ถึงเวลา...
      มันคงเป็นความรัก 
      Dancing
      ไม่ ใช่ ฉัน
      ล้ำลึก 
      Event
      ใกล้
      ถ้าปล่อยให้เธอเดินผ่าน
      อยู่ต่อเลยได้ไหม 
      โอมจงเงย
      หวานเย็น
      เพ้อเจ้อ 
      เพลง JEEP - WhatChaRaWaLee
      ปัจจุบัน
      อยากจะรักแค่ไหน
      เคลิ้ม
      ที่รัก(เธอ)
      เซโรงัง
      ถ้าเธอคิดจะลืมเขา
      ครั้งแรก 
      ฟากฟ้า
      เงินล้าน
      โง่งม
      จันทร์เจ้า
    Next 11.11% ( 7)  ชิล ๆ ในคาเฟ่
    Next  6.35% ( 4)  Easy Listening
    Next  6.35% ( 4)  เปิดซิงเพลงใหม่
    Next  4.76% ( 3)  เบเกอรี่ เลิฟอิส ฮิต
    Next  4.76% ( 3)  เบสกรึ่ม ๆ
    Next  4.76% ( 3)  วันวานหวานเสมอ
    Next  3.17% ( 2)  เดินไปฟังไป

 74 Current: Korean coffee shop  (visited 68 times)
      Labor In Vain
      이게 사랑일까 (Is This Love)
      Kiss of the last paradise
      슬프다는 말 (The word sadness)
      모닝콜 (feat. 프롬) (Morning call)
      아침산책 (Morning walk)
      바라만 봐도 좋은데 (I like to look at you)
      그저 그런 하루 (Ordinary day)
      살빼지 마요 (Do not lose weight please)
      이렇게 살고 있어 (I'm living like this)
      사과꽃 (Apple flower)
      커피를 마시고 (After coffee)
    Next 14.52% ( 9)  Easy Listening
    Next  6.45% ( 4)  เปิดซิงเพลงใหม่
    Next  6.45% ( 4)  Korean cute indy
    Next  4.84% ( 3)  เดินไปฟังไป
    Next  4.84% ( 3)  ชิล ๆ ยามเช้า
    Next  4.84% ( 3)  "Her" Soundtrack
    Next  4.84% ( 3)  City night

 75 Current: รวมเพลงจากญี่ปุ่น  (visited 70 times)
      奇跡 (Kiseki)
      ビューティフルデイ (Beautiful day)
      福笑い (Fuku warai)
      トイレの神様 (Toire no kamisama)
      アンマー (Anma)
      冷やし中華はじめました (Hiyashichuka hajimemashita)
      春夏秋冬 (Shunkashutou)
      ナナ (Nana)
      Tsunami
      風の詩を聞かせて (Kazeno utawo kikasete)
      ハイウェイ (Highway)
      キセキ (Kiseki)
      LOVE
      恋するフォーチュンクッキー (Koi suru fortune cookie)
      ヒーロー (Hero)
      小さな恋のうた (Chiisana koi no uta)
      そばにいるね (Soba ni iru ne)
      蕾 (Tsubomi)
      雨のち晴レルヤ (Ame nochi Hareruya)
      バラード (Ballad)
      涙 (Namida)
      366日 (366 Nichi)
      PONPONPON
      世界の一つだけの花 (Sekai ni hitotsu dake no hana)
      赤い糸 (Akai Ito)
      プラネタリウム (Planetarium)
      Best Friend
      Best Friend (Live)
      the Love Bug
      はじめよう (Hajimeyou)
      Luv (Sic) Part 3" (featuring Shing02)
      Luv (Sic.) Part 2
      Luv (Sic.) Part 4
      With Rainy Eyes
      Together
      BRAVE HEART feat.西野カナ
      Way to Love～最後の恋～feat.唐沢美帆 (Saigono koi)
      幸せになりたい。feat. CLIFF EDGE (Shiawaseni naritai)
      君へ～forever friend (Kimihe~forever friend)
      My Special Day
    Next  6.06% ( 4)  Easy Listening
    Next  6.06% ( 4)  Korean rap songs 
    Next  6.06% ( 4)  Korean cute indy
    Next  6.06% ( 4)  Trendy Kpop 2014
    Next  4.55% ( 3)  เปิดซิงเพลงใหม่
    Next  4.55% ( 3)  엄마
    Next  3.03% ( 2)  โด๋ว มรกต โกมลบุตร

 76 Current: ไปปาร์ตี้ ไปวิ่ง ไปซิ่ง   (visited 74 times)
      Give Life Back To Music
      Under Cover Of Darkness
      This Head I Hold
      I Belong In Your Arms
      Never Gonna Leave Me
      Default
      Everybody
      1901
      I Turn On
      Daylight
      It's Alright
      I Follow Rivers (The Magician Remix)
      Giving Up The Gun
      Bulletproof
      Take Me Over
      Dreaming
      Tongue Tied
      Warrior
      Let's Go
      What you know
      Something good can work
      Pumped up Kicks
      Houdini
      Young Folks
      Take Me Out
      Time To Pretend
      Kids
      We Are The People
    Next  6.45% ( 4)  เดินไปฟังไป
    Next  6.45% ( 4)  เบเกอรี่ เลิฟอิส ฮิต
    Next  6.45% ( 4)  เบสกรึ่ม ๆ
    Next  6.45% ( 4)  ล่องลอยไปในนิยาย
    Next  4.84% ( 3)  ชิล ๆ ยามเช้า
    Next  4.84% ( 3)  Jack Johnson Station
    Next  4.84% ( 3)  John Legend Station

 77 Current: City night  (visited 74 times)
      Scream
      Lovestoned/I Think She Knows
      Take A Bow
      We Found Love
      Domino
      We Are Young
      Rocketeer
      With You
      She Will Be Loved
      Teenage Dream
      Everyday
      Hold On (feat. Sampha)
      Crack Rock
      Suffocated love
      Genesis
      Pilots
      Silent Treatment
      Lianne La Havas | No Room For Doubt | A Take Away Show
      Ingenue
      In The Waiting Line
      Thrift shop
      Charlie Brown
      Breezeblocks
      Yellow
      Snow (Hey oh)
      Think I'm In Love
      Lost
    Next  8.82% ( 6)  Easy Listening
    Next  7.35% ( 5)  Jack Johnson Station
    Next  5.88% ( 4)  LIVE VIBE
    Next  4.41% ( 3)  คลื่นแสตมป์
    Next  4.41% ( 3)  Korean coffee shop
    Next  4.41% ( 3)  Korean rap songs 
    Next  4.41% ( 3)  John Legend Station

 78 Current: อินดี้ ณ ปัจจุบันขณะ  (visited 78 times)
      ไม่มีอะไรใหม่หรอก ทุกอย่างแม่งก็เก่าหมด 
      ดูซิลอง
      UNTITLED 001
      คิดเอาเอง 
      ควันจางลา
      หมุน 
      ป่าสนในห้องหมายเลข 1
      ฝันส่วนตัว 
      11.11
      ยินดีต้อนรัก? 
      หยิบแฮมเป็นแผ่นที่หก
      ย้อนเวลา 
      bad bangkok blue-the typhoon band
      ดวงจันทร์น้อยใจ 
      PRU - รักคุณ... (Love you)
      โพลารอยด์
      ร่องน้ำตา 
      หญิงมหัศจรรย์ 
      สมุย
      I don't know
      เก็บผ้า
      เอาแต่ใจ
      พลั้ง
      สะกดใจ (Geyster Remix)
      เสียดาย
      แค่เธออยู่ตรงนี้
      ภาพจำ
      สำคัญ
      ถ้วยกาแฟที่ถูกลืม
      น้ำค้าง
      สักวัน 
      ปล่อยให้ตัวฉันไป
      Would You Mind ?
      ช่อมะกอก
      หมุน 
      ส่วนที่หายไป 
      เสาไฟฟ้า
      ฉันรู้ดี 
      เวลาที่มี
      ทุกทุกวัน
      เจือจาง 
      นาฬิกา 
      วันสบาย
      เจ้าสาวไฉไล
      ปัจจุปันนา
      คืนที่ไม่ปกติ
      ขอ
      Ticket to Home
      ฯลฯ
      สิ่ง รู้ สึก
      พักก่อน
      04.00 A.M.
      ภาพซ้อน ย้อนแสง
    Next 10.61% ( 7)  โด๋ว มรกต โกมลบุตร
    Next  9.09% ( 6)  อินดี้ ตัวพ่อ
    Next  7.58% ( 5)  เปิดซิงเพลงใหม่
    Next  7.58% ( 5)  อินดี้ FAT ยุคบุกเบิก
    Next  7.58% ( 5)  Taylor Swift Station
    Next  6.06% ( 4)  อินดี้ ท็อปฮิต
    Next  4.55% ( 3)  ชิล ๆ ในคาเฟ่

 79 Current: คลื่นแสตมป์  (visited 80 times)
      กันและกัน
      แหลก
      เหนื่อยเกินไปรึเปล่า (Love or Beloved)
      บ้างไหม
      Good Morning
      วิธีใช้
      ตอบยังไง
      เสียงเดียว
      สเปค - Lula (ลุลา) [Official Audio]
      คนเหงาที่ไม่เคยเหงา 
      ชายกลาง
      เดินด้วยกันไหม 
      แอบชอบ - ละอองฟอง
      เก็บไว้ให้เธอ
      รอฟังคำนั้น 
      ไม่เคยไม่รักเธอ
      เบา เบา
      คนที่คุณก็รู้ว่าใคร
      รักคือสิ่งสวยงาม
      Brighter Day  Feat. กอล์ฟ พิชญะ
      Sense - Jetset'er (เจ็ทเซ็ตเตอร์) [Official MV]
      มันคงเป็นความรัก 
      เหม่อ
      อาย
      ผ่าน
      สิ่งที่ไม่เคยบอก
      ความคิด
      ใกล้
    Next 10.96% ( 8)  เปิดซิงเพลงใหม่
    Next  9.59% ( 7)  ชิล ๆ ในคาเฟ่
    Next  8.22% ( 6)  Easy Listening
    Next  6.85% ( 5)  เดินไปฟังไป
    Next  6.85% ( 5)  เบเกอรี่ เลิฟอิส ฮิต
    Next  5.48% ( 4)  กำลังใจ
    Next  4.11% ( 3)  อินดี้ FAT ยุคบุกเบิก

 80 Current: เบสกรึ่ม ๆ  (visited 82 times)
      Lift ลิฟท์
      รอพี่ก่อน
      ลมหายใจ
      ปัจจุบัน
      ผมรักเมืองไทย (I love you Thailand)
      Event (อีเว้นท์)
      แตกต่างเหมือนกัน
      วีนัส
      กลัว
      คลั่ง
    Next  9.21% ( 7)  เบเกอรี่ เลิฟอิส ฮิต
    Next  9.21% ( 7)  แอบรัก..เขิน
    Next  7.89% ( 6)  Jack Johnson Station
    Next  5.26% ( 4)  โด๋ว มรกต โกมลบุตร
    Next  5.26% ( 4)  เปิดซิงเพลงใหม่
    Next  5.26% ( 4)  ชิล ๆ ยามเช้า
    Next  5.26% ( 4)  ไปปาร์ตี้ ไปวิ่ง ไปซิ่ง 

 81 Current: Jack Johnson Station  (visited 82 times)
      Better Together
      Upside Down
      Banana Pancakes
      Good People
      Sitting, Waiting, Wishing
      No Other Way
      Situations
      It's All Understood
      Constellations
      Fortunate Fool
      Staple it Together
      Bubble Toes
      Posters
      I'm Yours
      Middle Man
      Traffic in the Sky
      Dreams be Dreams
      In between dreams medley
      Island In The Sun
      Say Goodbye
      Moonshine
      Hey Mama
      Questions
      One Day
      Free Falling
      Love
      I Will Wait
      We're Going To Be Friends
      Heading Home
      Sympathy
      The cove
      Holes to Heaven
      Honor and Harmony
      Even After All
    Next  9.59% ( 7)  Easy Listening
    Next  8.22% ( 6)  เบสกรึ่ม ๆ
    Next  6.85% ( 5)  City night
    Next  5.48% ( 4)  ชิล ๆ ในคาเฟ่
    Next  5.48% ( 4)  Gone deaf in one ear
    Next  4.11% ( 3)  ชิล ๆ ยามเช้า
    Next  4.11% ( 3)  ไปปาร์ตี้ ไปวิ่ง ไปซิ่ง 

 82 Current: "Her" Soundtrack  (visited 82 times)
      Dimensions 
      Some Other Place
      Divorce Papers
      Loneliness #3 Night Talking
      Sleepwalker
      Morning Talk Supersymmetry
      Milk & Honey
      Song On The Beach
      Loneliness #4 (Other People's Letters)
      Owl
      Photograph
      Milk & Honey (Alan Watts & 641)
      We're All Leaving
      The Moon Song
    Next 12.50% ( 9)  สุขเบา ๆ 
    Next  9.72% ( 7)  โด๋ว มรกต โกมลบุตร
    Next  6.94% ( 5)  Easy Listening
    Next  5.56% ( 4)  เปิดซิงเพลงใหม่
    Next  5.56% ( 4)  เดินไปฟังไป
    Next  5.56% ( 4)  อินดี้ FAT ยุคบุกเบิก
    Next  5.56% ( 4)  Gone deaf in one ear

 83 Current: ชิล ๆ ในคาเฟ่  (visited 94 times)
      รักคือสิ่งสวยงาม
      อยู่ที่เธอทุกอย่าง
      ยัง Feat. MildVocalist
      เติมเต็ม
      ยกมือ
      แหลก
      ยินดีต้อนรับ
      ไกล
      วอน   The Peachband
      กังวล
      แอบชอบ
      Scoop ชีพชนก tribute to จรัล มโนเพ็ชร
      บทเพลงกับหมู่ดาว - ชีพชนก ศรียามาตย์
      Safe & Sound (Ost.The Hunger Games) Cover by Nan Sathida feat.Palmie
      Desperado - แพงพลอย & ปามมี่ (classy)
      Someone like you - Adele : cover by Monnut and 32 October Band
      แสนรัก + ทนได้ทนไป (medley cover) by 32 October Band
      เสน่หา Cover by โซเฟีย สโมสร
      ฝันกอดเธอ 45rpm Test Pressing
      ฟ้าๆ ฝนๆ - ชุติมา แก้วเนียม  45rpm Test Pressing.mp4
      ความรัก - แนน สาธิดา [คุณชายรัชชานนท์] Official Audio HD
      ฉันจะฝันถึงเธอ (เนื้อร้อง) - สุภัทรา อินทรภักดี
      ฝันไป
      ทั้งรู้ก็รัก 
      สายลมรัก (Breeze of love) - ดนิตา.wmv
      ขอดาว
      เพราะเธอ
      สายลม
      DEPAPEPE Acoustic Friends Track 1 - Hi-D!!
      แทนใจ 
      ดีอย่างไร 
      ตลอดไป
    Next  7.95% ( 7)  คลื่นแสตมป์
    Next  7.95% ( 7)  กระตุกหนังตา
    Next  7.95% ( 7)  ขับรถเพลิน ๆ
    Next  6.82% ( 6)  เดินไปฟังไป
    Next  6.82% ( 6)  ชิล ๆ ยามเช้า
    Next  5.68% ( 5)  เปิดซิงเพลงใหม่
    Next  5.68% ( 5)  สุขเบา ๆ 

 84 Current: อินดี้ FAT ยุคบุกเบิก  (visited 96 times)
      แค่นั้น
      ยังรอคอยเธอเสมอ
      เหม่อ
      เธอเป็นใคร
      คืนนี้
      กลับมาที่เดิม
      วันที่เธออยู่
      Romeo & Juliet 
      พรู
      ขอสักวัน
      ทุกสิ่ง 
      เลือกแบบไหน
      เรือชูชีพ
      เท่าไรเท่านั้น
      มอเตอร์ไซค์
      ไปในดาว
      วันนั้น
      หา
      ใครจะรู้
      แต่งงาน
      ตื่นนะ
      อย่าให้รอ
      เพลงในใจ
      เธอเป็นใคร
      คำในใจ
      Fashion show
      สปิน
      ถ้า
      สาวน้อย
      ทุกอย่างจะดีเหมือนเดิม
      รึเปล่า
      ได้โปรด
      ตลอดไป
      โลกไม่ได้มีแค่เราสองคน
      ได้โปรด
      คนเดิม
      โลกไม่ใช่ของเรา
      มีฉันมีเธอ
      ชั่วโมงต้องมนต์
      กลับมา
      ความสุข
      ไม่ต้องทำอย่างนี้ 
      ไกลออกไป 
      ท่าอากาศยาน 
      Acrophobia
      เรื่องเดียว
      กันและกัน
      สิ่งที่ไม่เคยบอก
      ก่อน
      สิ่งดีดี
      กลิ่น
      กอดตัวเอง
      ที่ว่าง 
      ยื้อ
      ที่เธอเฝ้ารอ
      คนไม่มีวาสนา
      ขอบอก
      ขอให้ผม
    Next 11.49% (10)  Korean rap songs 
    Next  5.75% ( 5)  Easy Listening
    Next  5.75% ( 5)  อินดี้ ณ ปัจจุบันขณะ
    Next  5.75% ( 5)  อินดี้ ตัวพ่อ
    Next  5.75% ( 5)  อินดี้ ท็อปฮิต
    Next  4.60% ( 4)  เปิดซิงเพลงใหม่
    Next  4.60% ( 4)  "Her" Soundtrack

 85 Current: ชิล ๆ ยามเช้า  (visited 98 times)
      แก่นรัก
      กันและกัน
      เติมเต็ม
      อยากจะขอ
      ยกมือ
      Good Morning
      สยามรำลึก
      น้อย 
      เหนื่อยไหมหัวใจ feat. ว่าน วันวาน
      รักคือสิ่งสวยงาม
      คิดถึงกันบ้างไหม
      แปดโมงเช้าวันอังคาร 
      กังวล
      แอบชอบ
      กันและกัน 
      จะเป็นยัังไง (ช่างมัน)
      มีเธอ
      ฤดูที่แตกต่าง
      ต้นชบากับคนตาบอด
      คู่กัน
      บีบมือ
      ไปพัก
      เวลา
      ไม่มีวันแพ้ 
      อาย
      ลม
      กลัว
      ฉันทำทุกๆอย่างให้เธอมีความสุข
      Now & Forever
      เมื่อวันที่ฉันพบเธอ
      สัญญา
      รัก Feat อัญชลี จงคดีกิจ
      ใคร ​Feat. ธนชัย อุชชิน
      เหมือนเคย
      Wouldn't It Be Nice
      ฉันไม่เหงา
      ลงตัว
      ดีอย่างไร 
      แน่ใจ
      กลิ่น
    Next 10.47% ( 9)  เบเกอรี่ เลิฟอิส ฮิต
    Next  6.98% ( 6)  ชิล ๆ ในคาเฟ่
    Next  6.98% ( 6)  Taylor Swift Station
    Next  4.65% ( 4)  Easy Listening
    Next  4.65% ( 4)  เปิดซิงเพลงใหม่
    Next  4.65% ( 4)  เบสกรึ่ม ๆ
    Next  4.65% ( 4)  สุขเบา ๆ 

 86 Current: เบเกอรี่ เลิฟอิส ฮิต  (visited 110 times)
      เหมือนเคย
      พูดทำไม
      ครั้งสุดท้าย
      ฤดูที่ฉันเหงา
      ดินแดนแห่งความรัก
      หน่วง
      ระหว่างเรา
      ปฎิเสธอย่างไร
      จะเก็บเธออยู่ในใจเสมอ   
      Home 
      อีกแล้ว 
      ช่วงชีวิต
      เท่ากับที่เดิม
      ไม่มีวันแพ้ 
      ที่เธอเฝ้ารอ (Grooving Love)
      ก้อนหินละเมอ
      เธอเองจะได้ยินอะไรในใจฉันไหม 
      ที่แห่งนี้
      ฤดูที่แตกต่าง
      ไม่มี
      คนดี
      คำที่เป็นสุข
      ขอให้ผม
      คำไม่กี่คำ
      เวลา
      ไปพัก
      ดาว
      รักคุณเข้าอีกแล้ว
      คืนนี้
      เก็บดาว
      เจ้าหญิง
      I'm free
      ห่างไกลกันเหลือเกิน
      อยากจะขอ
      ภาพเก่าๆ
      ฉันทำทุกๆอย่างให้เธอมีความสุข
      Now & Forever
      เจ็บตรงไหน
      พยาน
      ในคืนที่เราเจอะเจอกันครั้งแรก
      ลมหายใจ
      ดอกไม้ feat. นภ พรชำนิ
      ข่าวของเธอ
      คลั่ง
      ถ้าฉันไม่ตื่น
      ดีใจ
      พ่อ
      พอ
      เมื่อวันที่ฉันพบเธอ
      สัญญา
      สัญญา 
      Heaven Is Real
      Paradise
      รัก Feat อัญชลี จงคดีกิจ
      รักแท้
      Yes I do 
      รักที่มากกว่า
      Live & Learn Feat กมลา สุโกศล
      คะแนนแห่งชีวิต
      คิดลึก
      เพลงรัก
      ต่างมุม
      หัวใจผูกกัน
      Who What Where When Why
      ล้มบ้างก็ได้
      นานแค่ไหน
      คนข้างล่าง
      ผมแอบชอบคุณอยู่
      ใคร ​Feat. ธนชัย อุชชิน
      คนที่คุณก็รู้ว่าใคร
      ที่ว่าง 
      กอดตัวเอง
      ความคิด
    Next 10.00% ( 9)  ชิล ๆ ยามเช้า
    Next  7.78% ( 7)  Easy Listening
    Next  7.78% ( 7)  เบสกรึ่ม ๆ
    Next  6.67% ( 6)  เปิดซิงเพลงใหม่
    Next  6.67% ( 6)  ริมน้ำ
    Next  5.56% ( 5)  คลื่นแสตมป์
    Next  4.44% ( 4)  โด๋ว มรกต โกมลบุตร

 87 Current: เดินไปฟังไป  (visited 132 times)
      Smack Into You
      The Way I Am
      Breezy
      Postcard from Italy
      Close To You
      King of Anything
      In Your Arms
      Gang of Rhythm
      Good Life
      Everything to Me
      Rhythm of Love
      You Give Me Something
      93 Million Miles
      Sway
      Sunshine
      A Thousand Miles
      You Got Me
      Try (Fame Ost.)
      Nantes
      Love Is A Drum
      Good Times
      Who Says
      Cruisin'
    Next  8.73% (11)  เปิดซิงเพลงใหม่
    Next  7.14% ( 9)  Easy Listening
    Next  5.56% ( 7)  "Get lucky" Cover
    Next  5.56% ( 7)  เพลงข้างสนาม
    Next  4.76% ( 6)  ชิล ๆ ในคาเฟ่
    Next  4.76% ( 6)  หลับตาเถิดนะ
    Next  3.97% ( 5)  คลื่นแสตมป์

 88 Current: เปิดซิงเพลงใหม่  (visited 144 times)
      พยายาม
      หยุดสงสาร 
      ร (W8)
      ระหว่างที่รอเขา 
      ขอ (WARM EYES)
      เพียงข้างหลัง
      Your Garden 
      หรือเพียงแค่เหงา Ost.ในสวนขวัญ
      Lots of love
      เจ็บกว่าเธอไม่รัก
      รักไม่ได้ ก็จะรัก Ost.แสงดาวกลางใจ 
      คืนนี้สบาย
      Forever
      อย่าให้มันโกง ost. สีเรียงเซียนโต๊ด
      ไม่ขออะไรมากไปกว่านี้
      LEANIN' REMIX
      คำถามซึ่งไร้คนตอบ Ost.Timeline จดหมาย ความทรงจำ
      ไกลแค่ไหนคือใกล้ Ost.Timeline จดหมาย-ความทรงจำ
      ในหนึ่งวัน
      อู๊เย
      รักแท้แปลว่าเธอ
      หอมกลิ่นอะไรไม่รู้
      47 RONIN
      ลองคุย (add friend)
      ฉันเป็นอะไร
      พรก. (ฉุกเฉิน)
      สิ่งที่ตามหา 
      คิดถึงคนที่ไม่ได้ไปหา 
      รอยยิ้ม
      I don't know
      แค่เธออยู่ตรงนี้
      ภาพจำ
    Next  8.59% (11)  เดินไปฟังไป
    Next  6.25% ( 8)  คลื่นแสตมป์
    Next  4.69% ( 6)  เบเกอรี่ เลิฟอิส ฮิต
    Next  4.69% ( 6)  กำลังใจ
    Next  3.91% ( 5)  โด๋ว มรกต โกมลบุตร
    Next  3.91% ( 5)  ชิล ๆ ในคาเฟ่
    Next  3.91% ( 5)  อินดี้ ณ ปัจจุบันขณะ

 89 Current: โด๋ว มรกต โกมลบุตร  (visited 146 times)
      ตื่น
      เคาท์ดาวน์
      Let's cry
      Dancing
      ออกซิเจน
      Miss You Sunday
      ตุ๊ก ตุ๊ก Breakdown 
      Up Chill 
      วาเลนไทน์ 
      ตัวตน (WhoAmI) 
      กลิ่น
      กอดตัวเอง
      กันและกัน
      กันและกัน
      กี่ร้อยวัน
      เก็บคำว่ารัก (ONS) 
      เก็บไว้ 
      เก็บไว้ให้เธอ
      เกือบ
      ใกล้
      ไกล
      ไกลออกไป 
      ขอบอก
      ขอให้ผม
      เข้ากันดี
      เข้ากันไม่ได้
      คนดี
      คนดีไม่มีวันตาย
      คนที่คุณก็รู้ว่าใคร
      คนที่แสนดี 
      ครั้งแรก 
      ความรัก
      ความรักที่ซ่อนไว้
      ความรู้สึกของวันนี้
      คำวิเศษ
      คำสัญญา
      คืนที่ดาวอิจฉา
      คืนที่ปวดร้าว 
      คืนนี้
      เคลิ้ม
      แค่เท่านั้น
      แค่อยากจะขอ.....xoxo
      ใครบางคนจากบนฟ้า
      ทักทาย (1)
      เงาของฝน
      จะทำอย่างไร
      จันทร์เจ้า
      จาระบี (ลื่นขั้นเทพ)
      จูบ
      เจ็บ...และชินไปเอง
      ทักทาย (2)
      เจ้าพระยา
      ฉันรู้ดี 
      ช่วงชีวิต
      ช่อมะกอก
      ชายกลาง
      ชิด
      เชียงใหม่
      ดื่ม
      ตาสว่าง
      ต่อให้ใครไม่รัก
      ติ๋ม
      ถามจันทร์ 
      โต๋ ล่ง ตง
      ฤดูที่ฉันเหงา
      อาย
      อาย
    Next 11.39% ( 9)  LIVE VIBE
    Next  8.86% ( 7)  "Her" Soundtrack
    Next  8.86% ( 7)  อินดี้ ณ ปัจจุบันขณะ
    Next  6.33% ( 5)  เปิดซิงเพลงใหม่
    Next  6.33% ( 5)  หลับตาเถิดนะ
    Next  5.06% ( 4)  เบเกอรี่ เลิฟอิส ฮิต
    Next  5.06% ( 4)  เบสกรึ่ม ๆ

 90 Current: Easy Listening  (visited 170 times)
      Just The Way You Are
      Sunday Morning
      Free Falling
      Love
      We're Going To Be Friends
      Heading Home
      Collide
      Lullaby
      True Affection
      Step
      Slow and Steady
      Hannah Hunt
      Home
      Good People
      Here Comes The Sun
      Let The Good Times Roll
      Free
      Do You Remember
      Why Georgia
      The Scientist
      Come On Get Higher
      Is this Love
      Lucky (Feat. Colbie Caillat)
      Nothing Left To Lose
      Snow (Hey oh)
      I'm Yours
      Don't Know Why
      Fix You
      Let Her Go
      Your body is wonderland
      Gravity
      Bigger Than My Body
      Naked As We Came
      We're Going To Be Friends
      Little Person
      Rhythm of Love
      Blackbird
      Lucy In The Sky With Diamonds
      丸の内サディスティック Guitar cover (Marunouchi Sadistic)
      Good Times
      Somewhere Only We Know
      Don't panic
      In my place
      Heartbreak Warfare
      Who Says
      Half of My Heart
      Cruisin'
    Next  5.84% ( 9)  เดินไปฟังไป
    Next  5.84% ( 9)  Korean coffee shop
    Next  5.84% ( 9)  John Legend Station
    Next  4.55% ( 7)  เบเกอรี่ เลิฟอิส ฮิต
    Next  4.55% ( 7)  Jack Johnson Station
    Next  4.55% ( 7)  Taylor Swift Station
    Next  3.90% ( 6)  คลื่นแสตมป์

